EESchema Schematic File Version 4
EELAYER 30 0
EELAYER END
$Descr A4 11693 8268
encoding utf-8
Sheet 1 4
Title ""
Date ""
Rev ""
Comp ""
Comment1 ""
Comment2 ""
Comment3 ""
Comment4 ""
$EndDescr
$Comp
L 000_symbol:ACDCpower U28
U 1 1 5D261149
P 1250 7250
F 0 "U28" H 1725 7915 50  0000 C CNN
F 1 "ACDCpower" H 1725 7824 50  0000 C CNN
F 2 "" H 1250 7250 50  0001 C CNN
F 3 "" H 1250 7250 50  0001 C CNN
	1    1250 7250
	1    0    0    -1  
$EndComp
$Comp
L 000_symbol:DCDCfanout U32
U 1 1 5D2617D5
P 2600 7650
F 0 "U32" H 3275 8565 50  0000 C CNN
F 1 "DCDCfanout" H 3275 8474 50  0000 C CNN
F 2 "" H 2600 7650 50  0001 C CNN
F 3 "" H 2600 7650 50  0001 C CNN
	1    2600 7650
	1    0    0    -1  
$EndComp
$Comp
L 000_symbol:VC707 U29
U 1 1 5D263B6E
P 1700 3700
F 0 "U29" H 2200 4275 50  0000 C CNN
F 1 "VC707" H 2200 4184 50  0000 C CNN
F 2 "" H 1700 3700 50  0001 C CNN
F 3 "" H 1700 3700 50  0001 C CNN
	1    1700 3700
	1    0    0    -1  
$EndComp
$Comp
L 000_symbol:FMC120 U33
U 1 1 5D26405C
P 3800 2900
F 0 "U33" H 4275 3675 50  0000 C CNN
F 1 "FMC120" H 4275 3584 50  0000 C CNN
F 2 "" H 3800 2900 50  0001 C CNN
F 3 "" H 3800 2900 50  0001 C CNN
	1    3800 2900
	1    0    0    -1  
$EndComp
$Comp
L 000_symbol:FMC120 U34
U 1 1 5D264673
P 3850 4750
F 0 "U34" H 4325 5525 50  0000 C CNN
F 1 "FMC120" H 4325 5434 50  0000 C CNN
F 2 "" H 3850 4750 50  0001 C CNN
F 3 "" H 3850 4750 50  0001 C CNN
	1    3850 4750
	1    0    0    -1  
$EndComp
$Comp
L Motor:Fan_Tacho_PWM M1
U 1 1 5D264F31
P 5200 7100
F 0 "M1" H 5358 7196 50  0000 L CNN
F 1 "Fan_Tacho_PWM" H 5358 7105 50  0000 L CNN
F 2 "" H 5200 7110 50  0001 C CNN
F 3 "http://www.formfactors.org/developer%5Cspecs%5Crev1_2_public.pdf" H 5200 7110 50  0001 C CNN
	1    5200 7100
	1    0    0    -1  
$EndComp
$Comp
L 000_symbol:UPIQ U37
U 1 1 5D266A3E
P 6300 2500
F 0 "U37" H 6675 3075 50  0000 C CNN
F 1 "UPIQ" H 6675 2984 50  0000 C CNN
F 2 "" H 6300 2500 50  0001 C CNN
F 3 "" H 6300 2500 50  0001 C CNN
	1    6300 2500
	1    0    0    -1  
$EndComp
$Comp
L 000_symbol:UPIQ U39
U 1 1 5D26AA3D
P 6350 4500
F 0 "U39" H 6725 5075 50  0000 C CNN
F 1 "UPIQ" H 6725 4984 50  0000 C CNN
F 2 "" H 6350 4500 50  0001 C CNN
F 3 "" H 6350 4500 50  0001 C CNN
	1    6350 4500
	1    0    0    -1  
$EndComp
$Comp
L 000_symbol:UPIQ U40
U 1 1 5D26BC85
P 6350 5200
F 0 "U40" H 6725 5775 50  0000 C CNN
F 1 "UPIQ" H 6725 5684 50  0000 C CNN
F 2 "" H 6350 5200 50  0001 C CNN
F 3 "" H 6350 5200 50  0001 C CNN
	1    6350 5200
	1    0    0    -1  
$EndComp
Wire Wire Line
	4850 2550 5250 2550
Wire Wire Line
	5250 2550 5250 2150
Wire Wire Line
	5250 2150 6200 2150
Wire Wire Line
	4850 2650 5300 2650
Wire Wire Line
	5300 2650 5300 2250
Wire Wire Line
	5300 2250 6200 2250
Wire Wire Line
	4850 2750 5400 2750
Wire Wire Line
	5400 2750 5400 2700
Wire Wire Line
	5400 2700 6200 2700
Wire Wire Line
	4850 2850 5550 2850
Wire Wire Line
	5550 2850 5550 2800
Wire Wire Line
	5550 2800 6200 2800
Wire Wire Line
	4900 4400 5300 4400
Wire Wire Line
	5300 4400 5300 4150
Wire Wire Line
	5300 4150 6250 4150
Wire Wire Line
	4900 4500 5350 4500
Wire Wire Line
	5350 4500 5350 4250
Wire Wire Line
	5350 4250 6250 4250
Wire Wire Line
	4900 4600 5350 4600
Wire Wire Line
	5350 4600 5350 4850
Wire Wire Line
	5350 4850 6250 4850
Wire Wire Line
	4900 4700 5300 4700
Wire Wire Line
	5300 4700 5300 4950
Wire Wire Line
	5300 4950 6250 4950
$Comp
L 000_symbol:DNIQ U41
U 1 1 5D274676
P 7050 1750
F 0 "U41" H 7425 2325 50  0000 C CNN
F 1 "DNIQ" H 7425 2234 50  0000 C CNN
F 2 "" H 7800 1750 50  0001 C CNN
F 3 "" H 7800 1750 50  0001 C CNN
	1    7050 1750
	-1   0    0    -1  
$EndComp
Wire Wire Line
	3700 2550 3350 2550
Wire Wire Line
	3700 2650 3500 2650
$Comp
L 000_symbol:UPIQ U38
U 1 1 5D26A412
P 6300 3050
F 0 "U38" H 6675 3625 50  0000 C CNN
F 1 "UPIQ" H 6675 3534 50  0000 C CNN
F 2 "" H 6300 3050 50  0001 C CNN
F 3 "" H 6300 3050 50  0001 C CNN
	1    6300 3050
	1    0    0    -1  
$EndComp
Wire Wire Line
	6200 1400 3350 1400
Wire Wire Line
	3350 1400 3350 2550
Wire Wire Line
	3500 2650 3500 1500
Wire Wire Line
	3500 1500 6200 1500
$Comp
L 000_symbol:Splitter_4way U36
U 1 1 5D28FA7F
P 5800 5800
F 0 "U36" V 5871 6430 50  0000 L CNN
F 1 "Splitter_4way" V 5780 6430 50  0000 L CNN
F 2 "" H 5650 5350 50  0001 C CNN
F 3 "" H 5750 5450 50  0001 C CNN
	1    5800 5800
	0    1    -1   0   
$EndComp
Wire Wire Line
	5500 5350 5500 2900
Wire Wire Line
	5500 2900 6200 2900
Wire Wire Line
	5700 5350 5700 4350
Wire Wire Line
	5700 4350 6250 4350
Wire Wire Line
	5900 5350 5900 5050
Wire Wire Line
	5900 5050 6250 5050
Wire Wire Line
	2800 3350 4250 3350
Wire Wire Line
	4250 3350 4250 3000
Wire Wire Line
	2800 3450 3250 3450
Wire Wire Line
	3250 3450 3250 4850
Wire Wire Line
	3250 4850 4300 4850
$Comp
L 000_symbol:Splitter_2way U35
U 1 1 5D297BB1
P 5400 1150
F 0 "U35" H 5400 1717 50  0000 C CNN
F 1 "Splitter_2way" H 5400 1626 50  0000 C CNN
F 2 "" H 5250 700 50  0001 C CNN
F 3 "" H 5350 800 50  0001 C CNN
	1    5400 1150
	1    0    0    -1  
$EndComp
Wire Wire Line
	5850 1050 6150 1050
Wire Wire Line
	6150 1050 6150 1600
Wire Wire Line
	6150 1600 6200 1600
Wire Wire Line
	5850 1250 5850 2350
Wire Wire Line
	5850 2350 6200 2350
$Comp
L 000_symbol:Splitter_2way U30
U 1 1 5D2AA332
P 2150 1900
F 0 "U30" H 2150 2467 50  0000 C CNN
F 1 "Splitter_2way" H 2150 2376 50  0000 C CNN
F 2 "" H 2000 1450 50  0001 C CNN
F 3 "" H 2100 1550 50  0001 C CNN
	1    2150 1900
	1    0    0    -1  
$EndComp
Wire Wire Line
	3700 1800 3700 2350
Wire Wire Line
	2600 2000 3200 2000
Wire Wire Line
	3200 2000 3200 3200
Wire Wire Line
	3200 3200 3750 3200
Wire Wire Line
	3750 3200 3750 4200
$Comp
L 000_symbol:Splitter_2way U31
U 1 1 5D2AC879
P 2150 2800
F 0 "U31" H 2150 3367 50  0000 C CNN
F 1 "Splitter_2way" H 2150 3276 50  0000 C CNN
F 2 "" H 2000 2350 50  0001 C CNN
F 3 "" H 2100 2450 50  0001 C CNN
	1    2150 2800
	1    0    0    -1  
$EndComp
Wire Wire Line
	2600 2700 2950 2700
Wire Wire Line
	2950 2700 2950 2450
Wire Wire Line
	2950 2450 3700 2450
Wire Wire Line
	2600 2900 3050 2900
Wire Wire Line
	3050 2900 3050 4300
Wire Wire Line
	3050 4300 3750 4300
Wire Wire Line
	2600 1800 3700 1800
$EndSCHEMATC
