{
	"0":{
		"chip":0,
		"addr":"A"
    },
	"1":{
		"chip":0,
		"addr":"B"
    },
	"2":{
		"chip":0,
		"addr":"C"
    },
	"3":{
		"chip":0,
		"addr":"D"
    },
	"4":{
		"chip":1,
		"addr":"A"
    },
	"5":{
		"chip":1,
		"addr":"B"
    },
	"6":{
		"chip":1,
		"addr":"C"
    },
	"7":{
		"chip":1,
		"addr":"D"
    },
	"8":{
		"chip":2,
		"addr":"A"
    },
	"9":{
		"chip":2,
		"addr":"B"
    },
	"10":{
		"chip":2,
		"addr":"C"
    },
	"11":{
		"chip":2,
		"addr":"D"
    },
	"12":{
		"chip":3,
		"addr":"A"
    },
	"13":{
		"chip":3,
		"addr":"B"
    },
	"14":{
		"chip":3,
		"addr":"C"
    },
	"15":{
		"chip":3,
		"addr":"D"
    },
	"16":{
		"chip":4,
		"addr":"A"
    },
	"17":{
		"chip":4,
		"addr":"B"
    },
	"18":{
		"chip":4,
		"addr":"C"
    },
	"19":{
		"chip":4,
		"addr":"D"
    },
	"20":{
		"chip":5,
		"addr":"A"
    },
	"21":{
		"chip":5,
		"addr":"B"
    },
	"22":{
		"chip":5,
		"addr":"C"
    },
	"23":{
		"chip":5,
		"addr":"D"
    }
}
