EESchema Schematic File Version 4
EELAYER 30 0
EELAYER END
$Descr A4 11693 8268
encoding utf-8
Sheet 1 4
Title ""
Date ""
Rev ""
Comp ""
Comment1 ""
Comment2 ""
Comment3 ""
Comment4 ""
$EndDescr
$Comp
L 000_symbol:LO_chassis U1
U 1 1 5D2E699A
P 800 1850
F 0 "U1" H 1300 1777 50  0000 C CNN
F 1 "LO_chassis" H 1300 1686 50  0000 C CNN
F 2 "" H 800 1850 50  0001 C CNN
F 3 "" H 800 1850 50  0001 C CNN
	1    800  1850
	1    0    0    -1  
$EndComp
$Comp
L 000_symbol:ADDA U2
U 1 1 5D2E8341
P 3000 2200
F 0 "U2" H 3625 3381 50  0000 C CNN
F 1 "ADDA" H 3625 3290 50  0000 C CNN
F 2 "" H 3000 2200 50  0001 C CNN
F 3 "" H 3000 2200 50  0001 C CNN
	1    3000 2200
	1    0    0    -1  
$EndComp
$Comp
L 000_symbol:ADDA U3
U 1 1 5D2E9C49
P 3000 3550
F 0 "U3" H 3625 4731 50  0000 C CNN
F 1 "ADDA" H 3625 4640 50  0000 C CNN
F 2 "" H 3000 3550 50  0001 C CNN
F 3 "" H 3000 3550 50  0001 C CNN
	1    3000 3550
	1    0    0    -1  
$EndComp
$Comp
L 000_symbol:ADDA U4
U 1 1 5D2EA6D6
P 3000 4800
F 0 "U4" H 3625 5981 50  0000 C CNN
F 1 "ADDA" H 3625 5890 50  0000 C CNN
F 2 "" H 3000 4800 50  0001 C CNN
F 3 "" H 3000 4800 50  0001 C CNN
	1    3000 4800
	1    0    0    -1  
$EndComp
$Comp
L 000_symbol:ADDA U5
U 1 1 5D2EAC30
P 3000 6050
F 0 "U5" H 3625 7231 50  0000 C CNN
F 1 "ADDA" H 3625 7140 50  0000 C CNN
F 2 "" H 3000 6050 50  0001 C CNN
F 3 "" H 3000 6050 50  0001 C CNN
	1    3000 6050
	1    0    0    -1  
$EndComp
$Comp
L 000_symbol:DAChassis U6
U 1 1 5D2F0B09
P 5250 2150
F 0 "U6" H 5875 3331 50  0000 C CNN
F 1 "DAChassis" H 5875 3240 50  0000 C CNN
F 2 "" H 5250 2150 50  0001 C CNN
F 3 "" H 5250 2150 50  0001 C CNN
	1    5250 2150
	1    0    0    -1  
$EndComp
$Comp
L 000_symbol:DAChassis U7
U 1 1 5D2F17B2
P 5250 3500
F 0 "U7" H 5875 4681 50  0000 C CNN
F 1 "DAChassis" H 5875 4590 50  0000 C CNN
F 2 "" H 5250 3500 50  0001 C CNN
F 3 "" H 5250 3500 50  0001 C CNN
	1    5250 3500
	1    0    0    -1  
$EndComp
$Comp
L 000_symbol:DAChassis U8
U 1 1 5D2F1F48
P 5250 4800
F 0 "U8" H 5875 5981 50  0000 C CNN
F 1 "DAChassis" H 5875 5890 50  0000 C CNN
F 2 "" H 5250 4800 50  0001 C CNN
F 3 "" H 5250 4800 50  0001 C CNN
	1    5250 4800
	1    0    0    -1  
$EndComp
Entry Wire Line
	2550 2900 2650 3000
Wire Wire Line
	2650 3000 2650 3050
Wire Wire Line
	2650 3050 2900 3050
Entry Wire Line
	2550 4150 2650 4250
Wire Wire Line
	2650 4250 2650 4300
Wire Wire Line
	2650 4300 2900 4300
Entry Wire Line
	2550 1600 2650 1700
Wire Wire Line
	2650 1700 2900 1700
Entry Wire Line
	2450 1700 2550 1800
Entry Wire Line
	2550 5450 2650 5550
Wire Wire Line
	2650 5550 2900 5550
Wire Bus Line
	2350 1000 4900 1000
Entry Wire Line
	2350 5350 2450 5450
Entry Wire Line
	2350 4100 2450 4200
Entry Wire Line
	2350 2850 2450 2950
Entry Wire Line
	2350 1500 2450 1600
Entry Wire Line
	2250 1600 2350 1700
Entry Wire Line
	4900 1450 5000 1550
Entry Wire Line
	4900 2800 5000 2900
Entry Wire Line
	4900 4100 5000 4200
Entry Wire Line
	4900 5350 5000 5450
Wire Wire Line
	2450 2950 2900 2950
Wire Wire Line
	2450 4200 2900 4200
Wire Wire Line
	5000 4200 5150 4200
Wire Wire Line
	5000 2900 5150 2900
Wire Wire Line
	5000 1550 5150 1550
Wire Bus Line
	2150 900  4700 900 
Entry Wire Line
	2150 5250 2250 5350
Entry Wire Line
	2150 4000 2250 4100
Entry Wire Line
	2150 2750 2250 2850
Entry Wire Line
	2150 1400 2250 1500
Entry Wire Line
	2050 1500 2150 1600
Entry Wire Line
	4700 1350 4800 1450
Entry Wire Line
	4700 2700 4800 2800
Entry Wire Line
	4700 4000 4800 4100
Entry Wire Line
	4700 5250 4800 5350
Wire Bus Line
	2000 800  4550 800 
Entry Wire Line
	4550 1250 4650 1350
Entry Wire Line
	4550 2600 4650 2700
Entry Wire Line
	4550 3900 4650 4000
Entry Wire Line
	4550 5150 4650 5250
Entry Wire Line
	2000 5150 2100 5250
Entry Wire Line
	2000 3900 2100 4000
Entry Wire Line
	2000 2650 2100 2750
Entry Wire Line
	2000 1300 2100 1400
Entry Wire Line
	1900 1400 2000 1500
Wire Wire Line
	2900 2050 3700 2050
Wire Wire Line
	3700 2050 3700 1750
Wire Wire Line
	3700 1750 5000 1750
Wire Wire Line
	5000 1750 5000 1950
Wire Wire Line
	2900 3400 3700 3400
Wire Wire Line
	3700 3400 3700 3100
Wire Wire Line
	3700 3100 5000 3100
Wire Wire Line
	5000 3100 5000 3300
Wire Wire Line
	2900 4650 3700 4650
Wire Wire Line
	3700 4650 3700 4350
Wire Wire Line
	3700 4350 5000 4350
Wire Wire Line
	5000 4600 5150 4600
Wire Wire Line
	5000 5450 5150 5450
$Comp
L 000_symbol:DAChassis U9
U 1 1 5D2F2702
P 5250 6050
F 0 "U9" H 5875 7231 50  0000 C CNN
F 1 "DAChassis" H 5875 7140 50  0000 C CNN
F 2 "" H 5250 6050 50  0001 C CNN
F 3 "" H 5250 6050 50  0001 C CNN
	1    5250 6050
	1    0    0    -1  
$EndComp
Wire Wire Line
	5000 4350 5000 4600
Wire Wire Line
	2900 5900 3700 5900
Wire Wire Line
	3700 5900 3700 5650
Wire Wire Line
	3700 5650 5000 5650
Wire Wire Line
	5000 5650 5000 5850
Wire Wire Line
	5000 5850 5150 5850
Wire Wire Line
	5150 3350 5000 3350
Wire Wire Line
	5000 3350 5000 3750
Wire Wire Line
	5000 3750 2750 3750
Wire Wire Line
	2750 3750 2750 4600
Wire Wire Line
	2750 4600 2900 4600
Wire Wire Line
	5150 4650 5000 4650
Wire Wire Line
	5000 4650 5000 5000
Wire Wire Line
	5000 5000 2750 5000
Wire Wire Line
	2750 5000 2750 5850
Wire Wire Line
	2750 5850 2900 5850
Wire Wire Line
	5150 5900 5000 5900
Wire Wire Line
	5000 5900 5000 6450
Wire Wire Line
	5000 6450 2700 6450
Wire Wire Line
	2900 3350 2750 3350
Wire Wire Line
	2750 3350 2750 2450
Wire Wire Line
	2750 2450 5000 2450
Wire Wire Line
	5000 2000 5150 2000
Wire Wire Line
	5000 2000 5000 2450
Wire Wire Line
	2700 6450 2700 2000
Wire Wire Line
	2700 2000 2900 2000
Wire Wire Line
	4450 2350 4450 2050
Wire Wire Line
	4450 2050 4350 2050
Wire Wire Line
	1150 1250 1150 2350
Wire Wire Line
	1150 2350 4450 2350
$Comp
L 000_symbol:Qchip_32 U10
U 1 1 5D406A0D
P 8500 5750
F 0 "U10" H 9178 7946 50  0000 L CNN
F 1 "Qchip_32" H 9178 7855 50  0000 L CNN
F 2 "" H 8500 5750 50  0001 C CNN
F 3 "" H 8500 5750 50  0001 C CNN
	1    8500 5750
	1    0    0    -1  
$EndComp
Wire Wire Line
	6600 1650 6850 1650
Wire Wire Line
	6850 1650 6850 2400
Wire Wire Line
	6850 2400 8400 2400
Wire Wire Line
	6600 1550 6950 1550
Wire Wire Line
	6950 1550 6950 2300
Wire Wire Line
	6950 2300 8400 2300
Wire Wire Line
	8400 2200 7050 2200
Wire Wire Line
	7050 2200 7050 1450
Wire Wire Line
	7050 1450 6600 1450
Wire Wire Line
	6600 1350 7150 1350
Wire Wire Line
	7150 1350 7150 2100
Wire Wire Line
	7150 2100 8400 2100
Wire Wire Line
	4350 1600 7250 1600
Wire Wire Line
	7250 1600 7250 2000
Wire Wire Line
	7250 2000 8400 2000
Wire Wire Line
	4350 1500 7300 1500
Wire Wire Line
	7300 1500 7300 1900
Wire Wire Line
	7300 1900 8400 1900
Wire Wire Line
	4350 1400 7400 1400
Wire Wire Line
	7400 1400 7400 1800
Wire Wire Line
	7400 1800 8400 1800
Wire Wire Line
	7600 1700 8400 1700
Wire Wire Line
	7500 1600 8400 1600
Wire Wire Line
	7600 1700 7600 1950
Wire Wire Line
	4350 1850 4350 1700
Wire Wire Line
	4350 1700 7500 1700
Wire Wire Line
	7500 1700 7500 1600
Wire Wire Line
	6600 3000 6850 3000
Wire Wire Line
	6850 3000 6850 3450
Wire Wire Line
	6850 3450 8400 3450
Wire Wire Line
	6600 2900 6950 2900
Wire Wire Line
	6950 2900 6950 3350
Wire Wire Line
	6950 3350 8400 3350
Wire Wire Line
	8400 3250 7050 3250
Wire Wire Line
	7050 3250 7050 2800
Wire Wire Line
	7050 2800 6600 2800
Wire Wire Line
	6600 2700 7150 2700
Wire Wire Line
	7150 2700 7150 3150
Wire Wire Line
	7150 3150 8400 3150
Wire Wire Line
	8400 3050 7250 3050
Wire Wire Line
	7250 3050 7250 2950
Wire Wire Line
	7250 2950 4350 2950
Wire Wire Line
	4350 2850 7350 2850
Wire Wire Line
	7350 2850 7350 2950
Wire Wire Line
	7350 2950 8400 2950
Wire Wire Line
	8400 2850 7450 2850
Wire Wire Line
	7450 2850 7450 2750
Wire Wire Line
	7450 2750 4350 2750
Wire Wire Line
	4350 3200 5050 3200
Wire Wire Line
	5050 3200 5050 3100
Wire Wire Line
	5050 3100 7500 3100
Wire Wire Line
	7500 3100 7500 2650
Wire Wire Line
	7500 2650 8400 2650
Wire Wire Line
	5000 3300 5150 3300
Wire Wire Line
	4950 3300 4950 3250
Wire Wire Line
	4950 3250 6750 3250
Wire Wire Line
	6750 3250 6750 3300
Wire Wire Line
	6750 3300 7600 3300
Wire Wire Line
	7600 3300 7600 2750
Wire Wire Line
	7600 2750 8400 2750
Wire Wire Line
	4350 3300 4950 3300
Wire Wire Line
	5000 1950 5150 1950
Wire Wire Line
	4350 1950 4350 1900
Wire Wire Line
	6750 1900 6750 1950
Wire Wire Line
	6750 1950 7600 1950
Wire Wire Line
	4350 1900 6750 1900
$Sheet
S -3000 3100 1000 4100
U 5D52DAAE
F0 "lo_gen" 50
F1 "../chassis/logen/lo_gen.sch" 50
F2 "V110" I L -3000 3550 50 
F3 "QLO8" O R -2000 6700 50 
F4 "QLO7" O R -2000 6200 50 
F5 "QLO6" O R -2000 5750 50 
F6 "QLO5" O R -2000 5250 50 
F7 "QLO4" O R -2000 4750 50 
F8 "QLO3" O R -2000 4300 50 
F9 "QLO2" O R -2000 3850 50 
F10 "QLO1" O R -2000 3350 50 
F11 "RLO8" O R -2000 6800 50 
F12 "RLO7" O R -2000 6300 50 
F13 "RLO6" O R -2000 5850 50 
F14 "RLO5" O R -2000 5350 50 
F15 "RLO4" O R -2000 4850 50 
F16 "RLO3" O R -2000 4400 50 
F17 "RLO2" O R -2000 3950 50 
F18 "RLO1" O R -2000 3450 50 
F19 "CLK8" O R -2000 6500 50 
F20 "CLK7" O R -2000 6000 50 
F21 "CLK6" O R -2000 5550 50 
F22 "CLK5" O R -2000 5050 50 
F23 "CLK4" O R -2000 4550 50 
F24 "CLK3" O R -2000 4100 50 
F25 "CLK2" O R -2000 3650 50 
F26 "CLK1" O R -2000 3150 50 
F27 "SYNC8" O R -2000 6600 50 
F28 "SYNC7" O R -2000 6100 50 
F29 "SYNC6" O R -2000 5650 50 
F30 "SYNC5" O R -2000 5150 50 
F31 "SYNC4" O R -2000 4650 50 
F32 "SYNC3" O R -2000 4200 50 
F33 "SYNC2" O R -2000 3750 50 
F34 "SYNC1" O R -2000 3250 50 
F35 "TWPA_CTRL" I L -3000 3800 50 
F36 "TWPA_PUMP" O R -2000 7050 50 
$EndSheet
$Sheet
S -1200 2850 1550 800 
U 5D3DD157
F0 "ADDA" 50
F1 "../chassis/adda/qubic_adda.sch" 50
$EndSheet
Wire Wire Line
	1900 1500 2050 1500
Wire Wire Line
	4650 5250 5150 5250
Wire Wire Line
	4650 4000 5150 4000
Wire Wire Line
	4650 2700 5150 2700
Wire Wire Line
	4650 1350 5150 1350
Wire Wire Line
	1900 1600 2250 1600
Wire Wire Line
	2100 1400 2900 1400
Wire Wire Line
	2100 2750 2900 2750
Wire Wire Line
	2100 4000 2900 4000
Wire Wire Line
	2100 5250 2900 5250
Wire Wire Line
	4800 5350 5150 5350
Wire Wire Line
	4800 4100 5150 4100
Wire Wire Line
	4800 2800 5150 2800
Wire Wire Line
	4800 1450 5150 1450
Wire Wire Line
	1900 1700 2450 1700
Wire Wire Line
	2250 1500 2900 1500
Wire Wire Line
	2250 2850 2900 2850
Wire Wire Line
	2250 4100 2900 4100
Wire Wire Line
	2250 5350 2900 5350
Wire Wire Line
	2450 5450 2900 5450
Wire Wire Line
	2450 1600 2900 1600
Wire Bus Line
	4550 800  4550 5150
Wire Bus Line
	4700 900  4700 5250
Wire Bus Line
	4900 1000 4900 5350
Wire Bus Line
	2550 1600 2550 5450
Wire Bus Line
	2350 1000 2350 5350
Wire Bus Line
	2150 900  2150 5250
Wire Bus Line
	2000 800  2000 5150
$EndSCHEMATC
