EESchema Schematic File Version 4
EELAYER 30 0
EELAYER END
$Descr A4 11693 8268
encoding utf-8
Sheet 3 14
Title ""
Date ""
Rev ""
Comp ""
Comment1 ""
Comment2 ""
Comment3 ""
Comment4 ""
$EndDescr
$Comp
L 000_symbol:DNIQ U?
U 1 1 617D72DF
P 4500 3250
AR Path="/616DC966/617D72DF" Ref="U?"  Part="1" 
AR Path="/616DC966/617D32B4/617D72DF" Ref="U301"  Part="1" 
F 0 "U301" H 4875 3825 50  0000 C CNN
F 1 "DNIQ" H 4875 3734 50  0000 C CNN
F 2 "" H 5250 3250 50  0001 C CNN
F 3 "" H 5250 3250 50  0001 C CNN
F 4 "LBNL" H 4500 3250 50  0001 C CNN "MFR"
F 5 "dniq" H 4500 3250 50  0001 C CNN "MPN"
	1    4500 3250
	-1   0    0    -1  
$EndComp
$Comp
L 000_symbol:Cable Cable?
U 1 1 617D72E8
P 3300 3700
AR Path="/616DC966/617D72E8" Ref="Cable?"  Part="1" 
AR Path="/616DC966/617D32B4/617D72E8" Ref="Cable304"  Part="1" 
F 0 "Cable304" H 3525 3925 50  0000 C CNN
F 1 "Cable 2 pin 6v3 make <12in" H 3525 3834 50  0000 C CNN
F 2 "" H 3300 3700 50  0001 C CNN
F 3 "" H 3300 3700 50  0001 C CNN
F 4 "LBL" H 3300 3700 50  0001 C CNN "MFR"
	1    3300 3700
	1    0    0    -1  
$EndComp
Text HLabel 1900 2700 0    50   Output ~ 0
IF_1
Text HLabel 1900 3050 0    50   Output ~ 0
IF_2
Wire Wire Line
	3850 3700 4000 3700
Wire Wire Line
	4000 3700 4000 3350
Text HLabel 1900 3700 0    50   Input ~ 0
DC6V3
Text HLabel 1900 3350 0    50   Input ~ 0
LO
Text HLabel 5650 2900 2    50   Input ~ 0
RF
Wire Wire Line
	1900 3700 3200 3700
$Comp
L 000_symbol:SMAcable_MM Cable302
U 1 1 617DAA02
P 2750 3400
F 0 "Cable302" H 2975 3675 50  0000 C CNN
F 1 "SMAcable_MM_elbow" H 2975 3584 50  0000 C CNN
F 2 "" H 2750 3400 50  0001 C CNN
F 3 "" H 2750 3400 50  0001 C CNN
F 4 "	M55339/53-30001-ND" H 2750 3400 50  0001 C CNN "Digi-Key_PN"
F 5 "Amphenol SV Microwave" H 2750 3400 50  0001 C CNN "MFR"
	1    2750 3400
	1    0    0    -1  
$EndComp
Wire Wire Line
	3300 3350 3650 3350
Wire Wire Line
	3650 3100 3650 3350
Wire Wire Line
	2650 3350 1900 3350
Wire Wire Line
	2850 3050 3650 3050
Wire Wire Line
	3650 3050 3650 3000
Wire Wire Line
	3450 2700 3650 2700
Wire Wire Line
	3650 2700 3650 2900
Wire Wire Line
	1900 3050 2200 3050
Wire Wire Line
	1900 2700 2800 2700
$Comp
L 000_symbol:SMAcable_MM Cable305
U 1 1 617DC9C6
P 4700 2950
F 0 "Cable305" H 4925 3225 50  0000 C CNN
F 1 "SMAcable_MM_4in" H 4925 3134 50  0000 C CNN
F 2 "" H 4700 2950 50  0001 C CNN
F 3 "" H 4700 2950 50  0001 C CNN
F 4 "minicircuits" H 4700 2950 50  0001 C CNN "MFR"
F 5 "086-4SM+" H 4700 2950 50  0001 C CNN "MPN"
	1    4700 2950
	1    0    0    -1  
$EndComp
Wire Wire Line
	5250 2900 5650 2900
$Comp
L 000_symbol:SMAcable_MM Cable303
U 1 1 618467C6
P 2900 2750
F 0 "Cable303" H 3125 3025 50  0000 C CNN
F 1 "SMAcable_MM_RA_S 12 in" H 3125 2934 50  0000 C CNN
F 2 "" H 2900 2750 50  0001 C CNN
F 3 "" H 2900 2750 50  0001 C CNN
F 4 "minicircuits" H 2900 2750 50  0001 C CNN "MFR"
F 5 "086-12SMRSM+" H 2900 2750 50  0001 C CNN "MPN"
	1    2900 2750
	1    0    0    -1  
$EndComp
$Comp
L 000_symbol:SMAcable_MM Cable301
U 1 1 618469DB
P 2300 3100
F 0 "Cable301" H 2525 3375 50  0000 C CNN
F 1 "SMAcable_MM_RA_S 12 in" H 2525 3284 50  0000 C CNN
F 2 "" H 2300 3100 50  0001 C CNN
F 3 "" H 2300 3100 50  0001 C CNN
F 4 "minicircuits" H 2300 3100 50  0001 C CNN "MFR"
F 5 "086-12SMRSM+" H 2300 3100 50  0001 C CNN "MPN"
	1    2300 3100
	1    0    0    -1  
$EndComp
$EndSCHEMATC
