EESchema Schematic File Version 4
EELAYER 30 0
EELAYER END
$Descr A4 11693 8268
encoding utf-8
Sheet 13 14
Title ""
Date ""
Rev ""
Comp ""
Comment1 ""
Comment2 ""
Comment3 ""
Comment4 ""
$EndDescr
$Comp
L 000_symbol:SMAcable_FF Cable1301
U 1 1 618CD3BA
P 1450 1050
F 0 "Cable1301" H 1675 1325 50  0000 C CNN
F 1 "SMAcable_FF panel bullet" H 1675 1234 50  0000 C CNN
F 2 "" H 1450 1050 50  0001 C CNN
F 3 "" H 1450 1050 50  0001 C CNN
F 4 "ARF2751-ND" H 1450 1050 50  0001 C CNN "Digi-Key_PN"
F 5 "Amphenol RF" H 1450 1050 50  0001 C CNN "MFR"
F 6 "132340" H 1450 1050 50  0001 C CNN "MPN"
	1    1450 1050
	1    0    0    -1  
$EndComp
Text HLabel 1350 1000 0    50   Input ~ 0
Q0I
Text HLabel 2000 1000 2    50   Output ~ 0
_Q0I
$Comp
L 000_symbol:SMAcable_FF Cable1302
U 1 1 618D3884
P 1450 1400
F 0 "Cable1302" H 1675 1675 50  0000 C CNN
F 1 "SMAcable_FF panel bullet" H 1675 1584 50  0000 C CNN
F 2 "" H 1450 1400 50  0001 C CNN
F 3 "" H 1450 1400 50  0001 C CNN
F 4 "ARF2751-ND" H 1450 1400 50  0001 C CNN "Digi-Key_PN"
F 5 "Amphenol RF" H 1450 1400 50  0001 C CNN "MFR"
F 6 "132340" H 1450 1400 50  0001 C CNN "MPN"
	1    1450 1400
	1    0    0    -1  
$EndComp
Text HLabel 1350 1350 0    50   Input ~ 0
Q0Q
Text HLabel 2000 1350 2    50   Output ~ 0
_Q0Q
$Comp
L 000_symbol:SMAcable_FF Cable1303
U 1 1 618D4B43
P 1450 1750
F 0 "Cable1303" H 1675 2025 50  0000 C CNN
F 1 "SMAcable_FF panel bullet" H 1675 1934 50  0000 C CNN
F 2 "" H 1450 1750 50  0001 C CNN
F 3 "" H 1450 1750 50  0001 C CNN
F 4 "ARF2751-ND" H 1450 1750 50  0001 C CNN "Digi-Key_PN"
F 5 "Amphenol RF" H 1450 1750 50  0001 C CNN "MFR"
F 6 "132340" H 1450 1750 50  0001 C CNN "MPN"
	1    1450 1750
	1    0    0    -1  
$EndComp
Text HLabel 1350 1700 0    50   Input ~ 0
Q1I
Text HLabel 2000 1700 2    50   Output ~ 0
_Q1I
$Comp
L 000_symbol:SMAcable_FF Cable1304
U 1 1 618D4B4B
P 1450 2100
F 0 "Cable1304" H 1675 2375 50  0000 C CNN
F 1 "SMAcable_FF panel bullet" H 1675 2284 50  0000 C CNN
F 2 "" H 1450 2100 50  0001 C CNN
F 3 "" H 1450 2100 50  0001 C CNN
F 4 "ARF2751-ND" H 1450 2100 50  0001 C CNN "Digi-Key_PN"
F 5 "Amphenol RF" H 1450 2100 50  0001 C CNN "MFR"
F 6 "132340" H 1450 2100 50  0001 C CNN "MPN"
	1    1450 2100
	1    0    0    -1  
$EndComp
Text HLabel 1350 2050 0    50   Input ~ 0
Q1Q
Text HLabel 2000 2050 2    50   Output ~ 0
_Q1Q
$Comp
L 000_symbol:SMAcable_FF Cable1305
U 1 1 618DA213
P 1450 2500
F 0 "Cable1305" H 1675 2775 50  0000 C CNN
F 1 "SMAcable_FF panel bullet" H 1675 2684 50  0000 C CNN
F 2 "" H 1450 2500 50  0001 C CNN
F 3 "" H 1450 2500 50  0001 C CNN
F 4 "ARF2751-ND" H 1450 2500 50  0001 C CNN "Digi-Key_PN"
F 5 "Amphenol RF" H 1450 2500 50  0001 C CNN "MFR"
F 6 "132340" H 1450 2500 50  0001 C CNN "MPN"
	1    1450 2500
	1    0    0    -1  
$EndComp
Text HLabel 1350 2450 0    50   Input ~ 0
Q2I
Text HLabel 2000 2450 2    50   Output ~ 0
_Q2I
$Comp
L 000_symbol:SMAcable_FF Cable1306
U 1 1 618DA21B
P 1450 2850
F 0 "Cable1306" H 1675 3125 50  0000 C CNN
F 1 "SMAcable_FF panel bullet" H 1675 3034 50  0000 C CNN
F 2 "" H 1450 2850 50  0001 C CNN
F 3 "" H 1450 2850 50  0001 C CNN
F 4 "ARF2751-ND" H 1450 2850 50  0001 C CNN "Digi-Key_PN"
F 5 "Amphenol RF" H 1450 2850 50  0001 C CNN "MFR"
F 6 "132340" H 1450 2850 50  0001 C CNN "MPN"
	1    1450 2850
	1    0    0    -1  
$EndComp
Text HLabel 1350 2800 0    50   Input ~ 0
Q2Q
Text HLabel 2000 2800 2    50   Output ~ 0
_Q2Q
$Comp
L 000_symbol:SMAcable_FF Cable1307
U 1 1 618DA223
P 1450 3200
F 0 "Cable1307" H 1675 3475 50  0000 C CNN
F 1 "SMAcable_FF panel bullet" H 1675 3384 50  0000 C CNN
F 2 "" H 1450 3200 50  0001 C CNN
F 3 "" H 1450 3200 50  0001 C CNN
F 4 "ARF2751-ND" H 1450 3200 50  0001 C CNN "Digi-Key_PN"
F 5 "Amphenol RF" H 1450 3200 50  0001 C CNN "MFR"
F 6 "132340" H 1450 3200 50  0001 C CNN "MPN"
	1    1450 3200
	1    0    0    -1  
$EndComp
Text HLabel 1350 3150 0    50   Input ~ 0
Q3I
Text HLabel 2000 3150 2    50   Output ~ 0
_Q3I
$Comp
L 000_symbol:SMAcable_FF Cable1308
U 1 1 618DA22B
P 1450 3550
F 0 "Cable1308" H 1675 3825 50  0000 C CNN
F 1 "SMAcable_FF panel bullet" H 1675 3734 50  0000 C CNN
F 2 "" H 1450 3550 50  0001 C CNN
F 3 "" H 1450 3550 50  0001 C CNN
F 4 "ARF2751-ND" H 1450 3550 50  0001 C CNN "Digi-Key_PN"
F 5 "Amphenol RF" H 1450 3550 50  0001 C CNN "MFR"
F 6 "132340" H 1450 3550 50  0001 C CNN "MPN"
	1    1450 3550
	1    0    0    -1  
$EndComp
Text HLabel 1350 3500 0    50   Input ~ 0
Q3Q
Text HLabel 2000 3500 2    50   Output ~ 0
_Q3Q
$Comp
L 000_symbol:SMAcable_FF Cable1309
U 1 1 618E1AB5
P 1450 3950
F 0 "Cable1309" H 1675 4225 50  0000 C CNN
F 1 "SMAcable_FF panel bullet" H 1675 4134 50  0000 C CNN
F 2 "" H 1450 3950 50  0001 C CNN
F 3 "" H 1450 3950 50  0001 C CNN
F 4 "ARF2751-ND" H 1450 3950 50  0001 C CNN "Digi-Key_PN"
F 5 "Amphenol RF" H 1450 3950 50  0001 C CNN "MFR"
F 6 "132340" H 1450 3950 50  0001 C CNN "MPN"
	1    1450 3950
	1    0    0    -1  
$EndComp
Text HLabel 1350 3900 0    50   Input ~ 0
Q4I
Text HLabel 2000 3900 2    50   Output ~ 0
_Q4I
$Comp
L 000_symbol:SMAcable_FF Cable1310
U 1 1 618E1ABD
P 1450 4300
F 0 "Cable1310" H 1675 4575 50  0000 C CNN
F 1 "SMAcable_FF panel bullet" H 1675 4484 50  0000 C CNN
F 2 "" H 1450 4300 50  0001 C CNN
F 3 "" H 1450 4300 50  0001 C CNN
F 4 "ARF2751-ND" H 1450 4300 50  0001 C CNN "Digi-Key_PN"
F 5 "Amphenol RF" H 1450 4300 50  0001 C CNN "MFR"
F 6 "132340" H 1450 4300 50  0001 C CNN "MPN"
	1    1450 4300
	1    0    0    -1  
$EndComp
Text HLabel 1350 4250 0    50   Input ~ 0
Q4Q
Text HLabel 2000 4250 2    50   Output ~ 0
_Q4Q
$Comp
L 000_symbol:SMAcable_FF Cable1311
U 1 1 618E1AC5
P 1450 4650
F 0 "Cable1311" H 1675 4925 50  0000 C CNN
F 1 "SMAcable_FF panel bullet" H 1675 4834 50  0000 C CNN
F 2 "" H 1450 4650 50  0001 C CNN
F 3 "" H 1450 4650 50  0001 C CNN
F 4 "ARF2751-ND" H 1450 4650 50  0001 C CNN "Digi-Key_PN"
F 5 "Amphenol RF" H 1450 4650 50  0001 C CNN "MFR"
F 6 "132340" H 1450 4650 50  0001 C CNN "MPN"
	1    1450 4650
	1    0    0    -1  
$EndComp
Text HLabel 1350 4600 0    50   Input ~ 0
Q5I
Text HLabel 2000 4600 2    50   Output ~ 0
_Q5I
$Comp
L 000_symbol:SMAcable_FF Cable1312
U 1 1 618E1ACD
P 1450 5000
F 0 "Cable1312" H 1675 5275 50  0000 C CNN
F 1 "SMAcable_FF panel bullet" H 1675 5184 50  0000 C CNN
F 2 "" H 1450 5000 50  0001 C CNN
F 3 "" H 1450 5000 50  0001 C CNN
F 4 "ARF2751-ND" H 1450 5000 50  0001 C CNN "Digi-Key_PN"
F 5 "Amphenol RF" H 1450 5000 50  0001 C CNN "MFR"
F 6 "132340" H 1450 5000 50  0001 C CNN "MPN"
	1    1450 5000
	1    0    0    -1  
$EndComp
Text HLabel 1350 4950 0    50   Input ~ 0
Q5Q
Text HLabel 2000 4950 2    50   Output ~ 0
_Q5Q
$Comp
L 000_symbol:SMAcable_FF Cable1313
U 1 1 618E1AD5
P 1450 5400
F 0 "Cable1313" H 1675 5675 50  0000 C CNN
F 1 "SMAcable_FF panel bullet" H 1675 5584 50  0000 C CNN
F 2 "" H 1450 5400 50  0001 C CNN
F 3 "" H 1450 5400 50  0001 C CNN
F 4 "ARF2751-ND" H 1450 5400 50  0001 C CNN "Digi-Key_PN"
F 5 "Amphenol RF" H 1450 5400 50  0001 C CNN "MFR"
F 6 "132340" H 1450 5400 50  0001 C CNN "MPN"
	1    1450 5400
	1    0    0    -1  
$EndComp
Text HLabel 1350 5350 0    50   Input ~ 0
Q6I
Text HLabel 2000 5350 2    50   Output ~ 0
_Q6I
$Comp
L 000_symbol:SMAcable_FF Cable1314
U 1 1 618E1ADD
P 1450 5750
F 0 "Cable1314" H 1675 6025 50  0000 C CNN
F 1 "SMAcable_FF panel bullet" H 1675 5934 50  0000 C CNN
F 2 "" H 1450 5750 50  0001 C CNN
F 3 "" H 1450 5750 50  0001 C CNN
F 4 "ARF2751-ND" H 1450 5750 50  0001 C CNN "Digi-Key_PN"
F 5 "Amphenol RF" H 1450 5750 50  0001 C CNN "MFR"
F 6 "132340" H 1450 5750 50  0001 C CNN "MPN"
	1    1450 5750
	1    0    0    -1  
$EndComp
Text HLabel 1350 5700 0    50   Input ~ 0
Q6Q
Text HLabel 2000 5700 2    50   Output ~ 0
_Q6Q
$Comp
L 000_symbol:SMAcable_FF Cable1315
U 1 1 618E1AE5
P 1450 6100
F 0 "Cable1315" H 1675 6375 50  0000 C CNN
F 1 "SMAcable_FF panel bullet" H 1675 6284 50  0000 C CNN
F 2 "" H 1450 6100 50  0001 C CNN
F 3 "" H 1450 6100 50  0001 C CNN
F 4 "ARF2751-ND" H 1450 6100 50  0001 C CNN "Digi-Key_PN"
F 5 "Amphenol RF" H 1450 6100 50  0001 C CNN "MFR"
F 6 "132340" H 1450 6100 50  0001 C CNN "MPN"
	1    1450 6100
	1    0    0    -1  
$EndComp
Text HLabel 1350 6050 0    50   Input ~ 0
Q7I
Text HLabel 2000 6050 2    50   Output ~ 0
_Q7I
$Comp
L 000_symbol:SMAcable_FF Cable1316
U 1 1 618E1AED
P 1450 6450
F 0 "Cable1316" H 1675 6725 50  0000 C CNN
F 1 "SMAcable_FF panel bullet" H 1675 6634 50  0000 C CNN
F 2 "" H 1450 6450 50  0001 C CNN
F 3 "" H 1450 6450 50  0001 C CNN
F 4 "ARF2751-ND" H 1450 6450 50  0001 C CNN "Digi-Key_PN"
F 5 "Amphenol RF" H 1450 6450 50  0001 C CNN "MFR"
F 6 "132340" H 1450 6450 50  0001 C CNN "MPN"
	1    1450 6450
	1    0    0    -1  
$EndComp
Text HLabel 1350 6400 0    50   Input ~ 0
Q7Q
Text HLabel 2000 6400 2    50   Output ~ 0
_Q7Q
$Comp
L 000_symbol:SMAcable_FF Cable1317
U 1 1 618EDD4E
P 2850 1050
F 0 "Cable1317" H 3075 1325 50  0000 C CNN
F 1 "SMAcable_FF panel bullet" H 3075 1234 50  0000 C CNN
F 2 "" H 2850 1050 50  0001 C CNN
F 3 "" H 2850 1050 50  0001 C CNN
F 4 "ARF2751-ND" H 2850 1050 50  0001 C CNN "Digi-Key_PN"
F 5 "Amphenol RF" H 2850 1050 50  0001 C CNN "MFR"
F 6 "132340" H 2850 1050 50  0001 C CNN "MPN"
	1    2850 1050
	1    0    0    -1  
$EndComp
Text HLabel 2750 1000 0    50   Input ~ 0
RTFI
Text HLabel 3400 1000 2    50   Output ~ 0
_RTFI
$Comp
L 000_symbol:SMAcable_FF Cable1318
U 1 1 618EDD56
P 2850 1400
F 0 "Cable1318" H 3075 1675 50  0000 C CNN
F 1 "SMAcable_FF panel bullet" H 3075 1584 50  0000 C CNN
F 2 "" H 2850 1400 50  0001 C CNN
F 3 "" H 2850 1400 50  0001 C CNN
F 4 "ARF2751-ND" H 2850 1400 50  0001 C CNN "Digi-Key_PN"
F 5 "Amphenol RF" H 2850 1400 50  0001 C CNN "MFR"
F 6 "132340" H 2850 1400 50  0001 C CNN "MPN"
	1    2850 1400
	1    0    0    -1  
$EndComp
Text HLabel 2750 1350 0    50   Input ~ 0
RTFQ
Text HLabel 3400 1350 2    50   Output ~ 0
_RTFQ
$Comp
L 000_symbol:SMAcable_FF Cable1319
U 1 1 618EDD5E
P 2850 1750
F 0 "Cable1319" H 3075 2025 50  0000 C CNN
F 1 "SMAcable_FF panel bullet" H 3075 1934 50  0000 C CNN
F 2 "" H 2850 1750 50  0001 C CNN
F 3 "" H 2850 1750 50  0001 C CNN
F 4 "ARF2751-ND" H 2850 1750 50  0001 C CNN "Digi-Key_PN"
F 5 "Amphenol RF" H 2850 1750 50  0001 C CNN "MFR"
F 6 "132340" H 2850 1750 50  0001 C CNN "MPN"
	1    2850 1750
	1    0    0    -1  
$EndComp
Text HLabel 2750 1700 0    50   Input ~ 0
RFFI
Text HLabel 3400 1700 2    50   Output ~ 0
_RFFI
$Comp
L 000_symbol:SMAcable_FF Cable1320
U 1 1 618EDD66
P 2850 2100
F 0 "Cable1320" H 3075 2375 50  0000 C CNN
F 1 "SMAcable_FF panel bullet" H 3075 2284 50  0000 C CNN
F 2 "" H 2850 2100 50  0001 C CNN
F 3 "" H 2850 2100 50  0001 C CNN
F 4 "ARF2751-ND" H 2850 2100 50  0001 C CNN "Digi-Key_PN"
F 5 "Amphenol RF" H 2850 2100 50  0001 C CNN "MFR"
F 6 "132340" H 2850 2100 50  0001 C CNN "MPN"
	1    2850 2100
	1    0    0    -1  
$EndComp
Text HLabel 2750 2050 0    50   Input ~ 0
RFFQ
Text HLabel 3400 2050 2    50   Output ~ 0
_RFFQ
$Comp
L 000_symbol:SMAcable_FF Cable1321
U 1 1 618F7343
P 2850 2550
F 0 "Cable1321" H 3075 2825 50  0000 C CNN
F 1 "SMAcable_FF panel bullet" H 3075 2734 50  0000 C CNN
F 2 "" H 2850 2550 50  0001 C CNN
F 3 "" H 2850 2550 50  0001 C CNN
F 4 "ARF2751-ND" H 2850 2550 50  0001 C CNN "Digi-Key_PN"
F 5 "Amphenol RF" H 2850 2550 50  0001 C CNN "MFR"
F 6 "132340" H 2850 2550 50  0001 C CNN "MPN"
	1    2850 2550
	1    0    0    -1  
$EndComp
Text HLabel 2750 2500 0    50   Input ~ 0
QLO1
Text HLabel 3400 2500 2    50   Output ~ 0
_QLO1
$Comp
L 000_symbol:SMAcable_FF Cable1322
U 1 1 618F734B
P 2850 2900
F 0 "Cable1322" H 3075 3175 50  0000 C CNN
F 1 "SMAcable_FF panel bullet" H 3075 3084 50  0000 C CNN
F 2 "" H 2850 2900 50  0001 C CNN
F 3 "" H 2850 2900 50  0001 C CNN
F 4 "ARF2751-ND" H 2850 2900 50  0001 C CNN "Digi-Key_PN"
F 5 "Amphenol RF" H 2850 2900 50  0001 C CNN "MFR"
F 6 "132340" H 2850 2900 50  0001 C CNN "MPN"
	1    2850 2900
	1    0    0    -1  
$EndComp
Text HLabel 2750 2850 0    50   Input ~ 0
QLO2
Text HLabel 3400 2850 2    50   Output ~ 0
_QLO2
$Comp
L 000_symbol:SMAcable_FF Cable1323
U 1 1 618F7353
P 2850 3250
F 0 "Cable1323" H 3075 3525 50  0000 C CNN
F 1 "SMAcable_FF panel bullet" H 3075 3434 50  0000 C CNN
F 2 "" H 2850 3250 50  0001 C CNN
F 3 "" H 2850 3250 50  0001 C CNN
F 4 "ARF2751-ND" H 2850 3250 50  0001 C CNN "Digi-Key_PN"
F 5 "Amphenol RF" H 2850 3250 50  0001 C CNN "MFR"
F 6 "132340" H 2850 3250 50  0001 C CNN "MPN"
	1    2850 3250
	1    0    0    -1  
$EndComp
Text HLabel 2750 3200 0    50   Input ~ 0
QLO3
Text HLabel 3400 3200 2    50   Output ~ 0
_QLO3
$Comp
L 000_symbol:SMAcable_FF Cable1324
U 1 1 618F735B
P 2850 3600
F 0 "Cable1324" H 3075 3875 50  0000 C CNN
F 1 "SMAcable_FF panel bullet" H 3075 3784 50  0000 C CNN
F 2 "" H 2850 3600 50  0001 C CNN
F 3 "" H 2850 3600 50  0001 C CNN
F 4 "ARF2751-ND" H 2850 3600 50  0001 C CNN "Digi-Key_PN"
F 5 "Amphenol RF" H 2850 3600 50  0001 C CNN "MFR"
F 6 "132340" H 2850 3600 50  0001 C CNN "MPN"
	1    2850 3600
	1    0    0    -1  
$EndComp
Text HLabel 2750 3550 0    50   Input ~ 0
QLO4
Text HLabel 3400 3550 2    50   Output ~ 0
_QLO4
$Comp
L 000_symbol:SMAcable_FF Cable1325
U 1 1 618FB5EB
P 2850 4000
F 0 "Cable1325" H 3075 4275 50  0000 C CNN
F 1 "SMAcable_FF panel bullet" H 3075 4184 50  0000 C CNN
F 2 "" H 2850 4000 50  0001 C CNN
F 3 "" H 2850 4000 50  0001 C CNN
F 4 "ARF2751-ND" H 2850 4000 50  0001 C CNN "Digi-Key_PN"
F 5 "Amphenol RF" H 2850 4000 50  0001 C CNN "MFR"
F 6 "132340" H 2850 4000 50  0001 C CNN "MPN"
	1    2850 4000
	1    0    0    -1  
$EndComp
Text HLabel 2750 3950 0    50   Input ~ 0
RLO1
Text HLabel 3400 3950 2    50   Output ~ 0
_RLO1
$Comp
L 000_symbol:SMAcable_FF Cable1326
U 1 1 618FB5F3
P 2850 4350
F 0 "Cable1326" H 3075 4625 50  0000 C CNN
F 1 "SMAcable_FF panel bullet" H 3075 4534 50  0000 C CNN
F 2 "" H 2850 4350 50  0001 C CNN
F 3 "" H 2850 4350 50  0001 C CNN
F 4 "ARF2751-ND" H 2850 4350 50  0001 C CNN "Digi-Key_PN"
F 5 "Amphenol RF" H 2850 4350 50  0001 C CNN "MFR"
F 6 "132340" H 2850 4350 50  0001 C CNN "MPN"
	1    2850 4350
	1    0    0    -1  
$EndComp
Text HLabel 2750 4300 0    50   Input ~ 0
RLO2
Text HLabel 3400 4300 2    50   Output ~ 0
_RLO2
$Comp
L 000_symbol:SMAcable_FF Cable1327
U 1 1 618FB5FB
P 2850 4700
F 0 "Cable1327" H 3075 4975 50  0000 C CNN
F 1 "SMAcable_FF panel bullet" H 3075 4884 50  0000 C CNN
F 2 "" H 2850 4700 50  0001 C CNN
F 3 "" H 2850 4700 50  0001 C CNN
F 4 "ARF2751-ND" H 2850 4700 50  0001 C CNN "Digi-Key_PN"
F 5 "Amphenol RF" H 2850 4700 50  0001 C CNN "MFR"
F 6 "132340" H 2850 4700 50  0001 C CNN "MPN"
	1    2850 4700
	1    0    0    -1  
$EndComp
Text HLabel 2750 4650 0    50   Input ~ 0
CLK1
Text HLabel 3400 4650 2    50   Output ~ 0
_CLK1
$Comp
L 000_symbol:SMAcable_FF Cable1328
U 1 1 618FB603
P 2850 5050
F 0 "Cable1328" H 3075 5325 50  0000 C CNN
F 1 "SMAcable_FF panel bullet" H 3075 5234 50  0000 C CNN
F 2 "" H 2850 5050 50  0001 C CNN
F 3 "" H 2850 5050 50  0001 C CNN
F 4 "ARF2751-ND" H 2850 5050 50  0001 C CNN "Digi-Key_PN"
F 5 "Amphenol RF" H 2850 5050 50  0001 C CNN "MFR"
F 6 "132340" H 2850 5050 50  0001 C CNN "MPN"
	1    2850 5050
	1    0    0    -1  
$EndComp
Text HLabel 2750 5000 0    50   Input ~ 0
CLK2
Text HLabel 3400 5000 2    50   Output ~ 0
_CLK2
$Comp
L 000_symbol:SMAcable_FF Cable1329
U 1 1 61900443
P 2850 5400
F 0 "Cable1329" H 3075 5675 50  0000 C CNN
F 1 "SMAcable_FF panel bullet" H 3075 5584 50  0000 C CNN
F 2 "" H 2850 5400 50  0001 C CNN
F 3 "" H 2850 5400 50  0001 C CNN
F 4 "ARF2751-ND" H 2850 5400 50  0001 C CNN "Digi-Key_PN"
F 5 "Amphenol RF" H 2850 5400 50  0001 C CNN "MFR"
F 6 "132340" H 2850 5400 50  0001 C CNN "MPN"
	1    2850 5400
	1    0    0    -1  
$EndComp
Text HLabel 2750 5350 0    50   Input ~ 0
SYSREF1
Text HLabel 3400 5350 2    50   Output ~ 0
_SYSREF1
$Comp
L 000_symbol:SMAcable_FF Cable1330
U 1 1 6190044B
P 2850 5750
F 0 "Cable1330" H 3075 6025 50  0000 C CNN
F 1 "SMAcable_FF panel bullet" H 3075 5934 50  0000 C CNN
F 2 "" H 2850 5750 50  0001 C CNN
F 3 "" H 2850 5750 50  0001 C CNN
F 4 "ARF2751-ND" H 2850 5750 50  0001 C CNN "Digi-Key_PN"
F 5 "Amphenol RF" H 2850 5750 50  0001 C CNN "MFR"
F 6 "132340" H 2850 5750 50  0001 C CNN "MPN"
	1    2850 5750
	1    0    0    -1  
$EndComp
Text HLabel 2750 5700 0    50   Input ~ 0
SYSREF2
Text HLabel 3400 5700 2    50   Output ~ 0
_SYSREF2
$Comp
L 000_symbol:SMAcable_FF Cable1331
U 1 1 619148CF
P 2850 6100
F 0 "Cable1331" H 3075 6375 50  0000 C CNN
F 1 "SMAcable_FF panel bullet" H 3075 6284 50  0000 C CNN
F 2 "" H 2850 6100 50  0001 C CNN
F 3 "" H 2850 6100 50  0001 C CNN
F 4 "ARF2751-ND" H 2850 6100 50  0001 C CNN "Digi-Key_PN"
F 5 "Amphenol RF" H 2850 6100 50  0001 C CNN "MFR"
F 6 "132340" H 2850 6100 50  0001 C CNN "MPN"
	1    2850 6100
	1    0    0    -1  
$EndComp
Text HLabel 2750 6050 0    50   Input ~ 0
SPARE1
Text HLabel 3400 6050 2    50   Output ~ 0
_SPARE1
$Comp
L 000_symbol:SMAcable_FF Cable1332
U 1 1 6191848E
P 2850 6400
F 0 "Cable1332" H 3075 6675 50  0000 C CNN
F 1 "SMAcable_FF panel bullet" H 3075 6584 50  0000 C CNN
F 2 "" H 2850 6400 50  0001 C CNN
F 3 "" H 2850 6400 50  0001 C CNN
F 4 "ARF2751-ND" H 2850 6400 50  0001 C CNN "Digi-Key_PN"
F 5 "Amphenol RF" H 2850 6400 50  0001 C CNN "MFR"
F 6 "132340" H 2850 6400 50  0001 C CNN "MPN"
	1    2850 6400
	1    0    0    -1  
$EndComp
Text HLabel 2750 6350 0    50   Input ~ 0
SPARE2
Text HLabel 3400 6350 2    50   Output ~ 0
_SPARE2
$Comp
L 000_symbol:SMAcable_FF Cable1333
U 1 1 61918AF3
P 2850 6750
F 0 "Cable1333" H 3075 7025 50  0000 C CNN
F 1 "SMAcable_FF panel bullet" H 3075 6934 50  0000 C CNN
F 2 "" H 2850 6750 50  0001 C CNN
F 3 "" H 2850 6750 50  0001 C CNN
F 4 "ARF2751-ND" H 2850 6750 50  0001 C CNN "Digi-Key_PN"
F 5 "Amphenol RF" H 2850 6750 50  0001 C CNN "MFR"
F 6 "132340" H 2850 6750 50  0001 C CNN "MPN"
	1    2850 6750
	1    0    0    -1  
$EndComp
Text HLabel 2750 6700 0    50   Input ~ 0
SPARE3
Text HLabel 3400 6700 2    50   Output ~ 0
_SPARE3
$Comp
L 000_symbol:SMAcable_FF Cable1334
U 1 1 619190EB
P 2850 7100
F 0 "Cable1334" H 3075 7375 50  0000 C CNN
F 1 "SMAcable_FF panel bullet" H 3075 7284 50  0000 C CNN
F 2 "" H 2850 7100 50  0001 C CNN
F 3 "" H 2850 7100 50  0001 C CNN
F 4 "ARF2751-ND" H 2850 7100 50  0001 C CNN "Digi-Key_PN"
F 5 "Amphenol RF" H 2850 7100 50  0001 C CNN "MFR"
F 6 "132340" H 2850 7100 50  0001 C CNN "MPN"
	1    2850 7100
	1    0    0    -1  
$EndComp
Text HLabel 2750 7050 0    50   Input ~ 0
SPARE4
Text HLabel 3400 7050 2    50   Output ~ 0
_SPARE4
$EndSCHEMATC
