EESchema Schematic File Version 4
EELAYER 30 0
EELAYER END
$Descr USLetter 11000 8500
encoding utf-8
Sheet 14 14
Title ""
Date ""
Rev ""
Comp ""
Comment1 ""
Comment2 ""
Comment3 ""
Comment4 ""
$EndDescr
$Comp
L 000_symbol:CUIPJ-038AH U1404
U 1 1 616D0FCB
P 5050 3750
F 0 "U1404" H 5200 3750 50  0000 C CNN
F 1 "CUIPJ-038AH" H 5300 4000 50  0000 C CNN
F 2 "" H 5050 3750 50  0001 C CNN
F 3 "" H 5050 3750 50  0001 C CNN
F 4 "CP-038AH-ND" H 5050 3750 50  0001 C CNN "Digi-Key_PN"
F 5 "CUI Devices" H 5050 3750 50  0001 C CNN "MFR"
F 6 "PJ-038AH" H 5050 3750 50  0001 C CNN "MPN"
	1    5050 3750
	1    0    0    -1  
$EndComp
$Comp
L 000_symbol:SMAcable_FF Cable?
U 1 1 616DA5EB
P 2500 2300
AR Path="/616DDDEB/616DA5EB" Ref="Cable?"  Part="1" 
AR Path="/616DF26F/616DA5EB" Ref="Cable1401"  Part="1" 
F 0 "Cable1401" H 2725 2575 50  0000 C CNN
F 1 "SMAcable_FF panel bullet" H 2725 2484 50  0000 C CNN
F 2 "" H 2500 2300 50  0001 C CNN
F 3 "" H 2500 2300 50  0001 C CNN
F 4 "ARF2751-ND" H 2500 2300 50  0001 C CNN "Digi-Key_PN"
F 5 "Amphenol RF" H 2500 2300 50  0001 C CNN "MFR"
F 6 "132340" H 2500 2300 50  0001 C CNN "MPN"
	1    2500 2300
	1    0    0    -1  
$EndComp
Text HLabel 2400 2250 0    50   Input ~ 0
Q0D
Text HLabel 3050 2250 2    50   Output ~ 0
_Q0D
$Comp
L 000_symbol:SMAcable_FF Cable?
U 1 1 616DD54E
P 2500 2650
AR Path="/616DDDEB/616DD54E" Ref="Cable?"  Part="1" 
AR Path="/616DF26F/616DD54E" Ref="Cable1402"  Part="1" 
F 0 "Cable1402" H 2725 2925 50  0000 C CNN
F 1 "SMAcable_FF panel bullet" H 2725 2834 50  0000 C CNN
F 2 "" H 2500 2650 50  0001 C CNN
F 3 "" H 2500 2650 50  0001 C CNN
F 4 "ARF2751-ND" H 2500 2650 50  0001 C CNN "Digi-Key_PN"
F 5 "Amphenol RF" H 2500 2650 50  0001 C CNN "MFR"
F 6 "132340" H 2500 2650 50  0001 C CNN "MPN"
	1    2500 2650
	1    0    0    -1  
$EndComp
Text HLabel 2400 2600 0    50   Input ~ 0
Q1D
Text HLabel 3050 2600 2    50   Output ~ 0
_Q1D
$Comp
L 000_symbol:SMAcable_FF Cable?
U 1 1 616DD879
P 2500 3000
AR Path="/616DDDEB/616DD879" Ref="Cable?"  Part="1" 
AR Path="/616DF26F/616DD879" Ref="Cable1403"  Part="1" 
F 0 "Cable1403" H 2725 3275 50  0000 C CNN
F 1 "SMAcable_FF panel bullet" H 2725 3184 50  0000 C CNN
F 2 "" H 2500 3000 50  0001 C CNN
F 3 "" H 2500 3000 50  0001 C CNN
F 4 "ARF2751-ND" H 2500 3000 50  0001 C CNN "Digi-Key_PN"
F 5 "Amphenol RF" H 2500 3000 50  0001 C CNN "MFR"
F 6 "132340" H 2500 3000 50  0001 C CNN "MPN"
	1    2500 3000
	1    0    0    -1  
$EndComp
Text HLabel 2400 2950 0    50   Input ~ 0
Q2D
Text HLabel 3050 2950 2    50   Output ~ 0
_Q2D
$Comp
L 000_symbol:SMAcable_FF Cable?
U 1 1 616DDC16
P 2500 3350
AR Path="/616DDDEB/616DDC16" Ref="Cable?"  Part="1" 
AR Path="/616DF26F/616DDC16" Ref="Cable1404"  Part="1" 
F 0 "Cable1404" H 2725 3625 50  0000 C CNN
F 1 "SMAcable_FF panel bullet" H 2725 3534 50  0000 C CNN
F 2 "" H 2500 3350 50  0001 C CNN
F 3 "" H 2500 3350 50  0001 C CNN
F 4 "ARF2751-ND" H 2500 3350 50  0001 C CNN "Digi-Key_PN"
F 5 "Amphenol RF" H 2500 3350 50  0001 C CNN "MFR"
F 6 "132340" H 2500 3350 50  0001 C CNN "MPN"
	1    2500 3350
	1    0    0    -1  
$EndComp
Text HLabel 2400 3300 0    50   Input ~ 0
Q3D
Text HLabel 3050 3300 2    50   Output ~ 0
_Q3D
$Comp
L 000_symbol:SMAcable_FF Cable?
U 1 1 616E07A6
P 2500 3700
AR Path="/616DDDEB/616E07A6" Ref="Cable?"  Part="1" 
AR Path="/616DF26F/616E07A6" Ref="Cable1405"  Part="1" 
F 0 "Cable1405" H 2725 3975 50  0000 C CNN
F 1 "SMAcable_FF panel bullet" H 2725 3884 50  0000 C CNN
F 2 "" H 2500 3700 50  0001 C CNN
F 3 "" H 2500 3700 50  0001 C CNN
F 4 "ARF2751-ND" H 2500 3700 50  0001 C CNN "Digi-Key_PN"
F 5 "Amphenol RF" H 2500 3700 50  0001 C CNN "MFR"
F 6 "132340" H 2500 3700 50  0001 C CNN "MPN"
	1    2500 3700
	1    0    0    -1  
$EndComp
Text HLabel 2400 3650 0    50   Input ~ 0
Q4D
Text HLabel 3050 3650 2    50   Output ~ 0
_Q4D
$Comp
L 000_symbol:SMAcable_FF Cable?
U 1 1 616E07AE
P 2500 4050
AR Path="/616DDDEB/616E07AE" Ref="Cable?"  Part="1" 
AR Path="/616DF26F/616E07AE" Ref="Cable1406"  Part="1" 
F 0 "Cable1406" H 2725 4325 50  0000 C CNN
F 1 "SMAcable_FF panel bullet" H 2725 4234 50  0000 C CNN
F 2 "" H 2500 4050 50  0001 C CNN
F 3 "" H 2500 4050 50  0001 C CNN
F 4 "ARF2751-ND" H 2500 4050 50  0001 C CNN "Digi-Key_PN"
F 5 "Amphenol RF" H 2500 4050 50  0001 C CNN "MFR"
F 6 "132340" H 2500 4050 50  0001 C CNN "MPN"
	1    2500 4050
	1    0    0    -1  
$EndComp
Text HLabel 2400 4000 0    50   Input ~ 0
Q5D
Text HLabel 3050 4000 2    50   Output ~ 0
_Q5D
$Comp
L 000_symbol:SMAcable_FF Cable?
U 1 1 616E07B6
P 2500 4400
AR Path="/616DDDEB/616E07B6" Ref="Cable?"  Part="1" 
AR Path="/616DF26F/616E07B6" Ref="Cable1407"  Part="1" 
F 0 "Cable1407" H 2725 4675 50  0000 C CNN
F 1 "SMAcable_FF panel bullet" H 2725 4584 50  0000 C CNN
F 2 "" H 2500 4400 50  0001 C CNN
F 3 "" H 2500 4400 50  0001 C CNN
F 4 "ARF2751-ND" H 2500 4400 50  0001 C CNN "Digi-Key_PN"
F 5 "Amphenol RF" H 2500 4400 50  0001 C CNN "MFR"
F 6 "132340" H 2500 4400 50  0001 C CNN "MPN"
	1    2500 4400
	1    0    0    -1  
$EndComp
Text HLabel 2400 4350 0    50   Input ~ 0
Q6D
Text HLabel 3050 4350 2    50   Output ~ 0
_Q6D
$Comp
L 000_symbol:SMAcable_FF Cable?
U 1 1 616E07BE
P 2500 4750
AR Path="/616DDDEB/616E07BE" Ref="Cable?"  Part="1" 
AR Path="/616DF26F/616E07BE" Ref="Cable1408"  Part="1" 
F 0 "Cable1408" H 2725 5025 50  0000 C CNN
F 1 "SMAcable_FF panel bullet" H 2725 4934 50  0000 C CNN
F 2 "" H 2500 4750 50  0001 C CNN
F 3 "" H 2500 4750 50  0001 C CNN
F 4 "ARF2751-ND" H 2500 4750 50  0001 C CNN "Digi-Key_PN"
F 5 "Amphenol RF" H 2500 4750 50  0001 C CNN "MFR"
F 6 "132340" H 2500 4750 50  0001 C CNN "MPN"
	1    2500 4750
	1    0    0    -1  
$EndComp
Text HLabel 2400 4700 0    50   Input ~ 0
Q7D
Text HLabel 3050 4700 2    50   Output ~ 0
_Q7D
$Comp
L 000_symbol:SMAcable_FF Cable?
U 1 1 616E42CB
P 5000 4150
AR Path="/616DDDEB/616E42CB" Ref="Cable?"  Part="1" 
AR Path="/616DF26F/616E42CB" Ref="Cable1409"  Part="1" 
F 0 "Cable1409" H 5225 4425 50  0000 C CNN
F 1 "SMAcable_FF panel bullet" H 5225 4334 50  0000 C CNN
F 2 "" H 5000 4150 50  0001 C CNN
F 3 "" H 5000 4150 50  0001 C CNN
F 4 "ARF2751-ND" H 5000 4150 50  0001 C CNN "Digi-Key_PN"
F 5 "Amphenol RF" H 5000 4150 50  0001 C CNN "MFR"
F 6 "132340" H 5000 4150 50  0001 C CNN "MPN"
	1    5000 4150
	1    0    0    -1  
$EndComp
Text HLabel 4900 4100 0    50   Input ~ 0
RFF
Text HLabel 5550 4100 2    50   Output ~ 0
_RFF
$Comp
L 000_symbol:SMAcable_FF Cable?
U 1 1 616E42D3
P 5000 4500
AR Path="/616DDDEB/616E42D3" Ref="Cable?"  Part="1" 
AR Path="/616DF26F/616E42D3" Ref="Cable1410"  Part="1" 
F 0 "Cable1410" H 5225 4775 50  0000 C CNN
F 1 "SMAcable_FF panel bullet" H 5225 4684 50  0000 C CNN
F 2 "" H 5000 4500 50  0001 C CNN
F 3 "" H 5000 4500 50  0001 C CNN
F 4 "ARF2751-ND" H 5000 4500 50  0001 C CNN "Digi-Key_PN"
F 5 "Amphenol RF" H 5000 4500 50  0001 C CNN "MFR"
F 6 "132340" H 5000 4500 50  0001 C CNN "MPN"
	1    5000 4500
	1    0    0    -1  
$EndComp
Text HLabel 4900 4450 0    50   Input ~ 0
RTF
Text HLabel 5550 4450 2    50   Output ~ 0
_RTF
Text HLabel 4950 3650 0    50   Input ~ 0
DC12V5A
Text HLabel 5550 3650 2    50   Output ~ 0
_DC12V5A
$Comp
L 000_symbol:CUIPJ-038AH U1403
U 1 1 616EDAD1
P 5050 3400
F 0 "U1403" H 5200 3400 50  0000 C CNN
F 1 "CUIPJ-038AH" H 5300 3650 50  0000 C CNN
F 2 "" H 5050 3400 50  0001 C CNN
F 3 "" H 5050 3400 50  0001 C CNN
F 4 "CP-038AH-ND" H 5050 3400 50  0001 C CNN "Digi-Key_PN"
F 5 "CUI Devices" H 5050 3400 50  0001 C CNN "MFR"
F 6 "PJ-038AH" H 5050 3400 50  0001 C CNN "MPN"
	1    5050 3400
	1    0    0    -1  
$EndComp
Text HLabel 4950 3300 0    50   Input ~ 0
USBEXTRAPOWER
Text HLabel 5550 3300 2    50   Output ~ 0
_USBEXTRAPOWER
$Comp
L 000_symbol:USBAB U1402
U 1 1 6170084A
P 5050 3000
F 0 "U1402" H 5275 3340 50  0000 C CNN
F 1 "USBAB" H 5275 3249 50  0000 C CNN
F 2 "" H 4800 4050 50  0001 C CNN
F 3 "" H 4800 4050 50  0001 C CNN
F 4 "SC2029-ND" H 5050 3000 50  0001 C CNN "Digi-Key_PN"
F 5 "Switchcraft Inc." H 5050 3000 50  0001 C CNN "MFR"
F 6 "EHUSBABBX" H 5050 3000 50  0001 C CNN "MPN"
	1    5050 3000
	1    0    0    -1  
$EndComp
$Comp
L 000_symbol:USBBA U1401
U 1 1 61704193
P 5050 2600
F 0 "U1401" H 5282 2940 50  0000 C CNN
F 1 "USBBA" H 5282 2849 50  0000 C CNN
F 2 "" H 4800 3650 50  0001 C CNN
F 3 "" H 4800 3650 50  0001 C CNN
F 4 "SC1837-ND" H 5050 2600 50  0001 C CNN "Digi-Key_PN"
F 5 "Switchcraft Inc." H 5050 2600 50  0001 C CNN "MFR"
F 6 "EHUSBBABX" H 5050 2600 50  0001 C CNN "MPN"
	1    5050 2600
	1    0    0    -1  
$EndComp
Text HLabel 4550 2500 0    50   Input ~ 0
USBTOCOMPUTER
Text HLabel 5700 2500 2    50   Input ~ 0
_USBTOCOMPUTER
Text HLabel 4950 2900 0    50   Input ~ 0
USBDAISYCHAIN
Text HLabel 5750 2900 2    50   Input ~ 0
_USBDAISYCHAIN
$Comp
L 000_symbol:SMAcable_FF Cable?
U 1 1 617092DF
P 8000 3000
AR Path="/616DDDEB/617092DF" Ref="Cable?"  Part="1" 
AR Path="/616DF26F/617092DF" Ref="Cable1411"  Part="1" 
F 0 "Cable1411" H 8225 3275 50  0000 C CNN
F 1 "SMAcable_FF panel bullet" H 8225 3184 50  0000 C CNN
F 2 "" H 8000 3000 50  0001 C CNN
F 3 "" H 8000 3000 50  0001 C CNN
F 4 "ARF2751-ND" H 8000 3000 50  0001 C CNN "Digi-Key_PN"
F 5 "Amphenol RF" H 8000 3000 50  0001 C CNN "MFR"
F 6 "132340" H 8000 3000 50  0001 C CNN "MPN"
	1    8000 3000
	1    0    0    -1  
$EndComp
Text HLabel 7900 2950 0    50   Input ~ 0
Spare1
Text HLabel 8550 2950 2    50   Output ~ 0
_Spare1
$Comp
L 000_symbol:SMAcable_FF Cable?
U 1 1 6170F21D
P 8000 3350
AR Path="/616DDDEB/6170F21D" Ref="Cable?"  Part="1" 
AR Path="/616DF26F/6170F21D" Ref="Cable1412"  Part="1" 
F 0 "Cable1412" H 8225 3625 50  0000 C CNN
F 1 "SMAcable_FF panel bullet" H 8225 3534 50  0000 C CNN
F 2 "" H 8000 3350 50  0001 C CNN
F 3 "" H 8000 3350 50  0001 C CNN
F 4 "ARF2751-ND" H 8000 3350 50  0001 C CNN "Digi-Key_PN"
F 5 "Amphenol RF" H 8000 3350 50  0001 C CNN "MFR"
F 6 "132340" H 8000 3350 50  0001 C CNN "MPN"
	1    8000 3350
	1    0    0    -1  
$EndComp
Text HLabel 7900 3300 0    50   Input ~ 0
Spare2
Text HLabel 8550 3300 2    50   Output ~ 0
_Spare2
$Comp
L 000_symbol:SMAcable_FF Cable?
U 1 1 61712A35
P 8000 3700
AR Path="/616DDDEB/61712A35" Ref="Cable?"  Part="1" 
AR Path="/616DF26F/61712A35" Ref="Cable1413"  Part="1" 
F 0 "Cable1413" H 8225 3975 50  0000 C CNN
F 1 "SMAcable_FF panel bullet" H 8225 3884 50  0000 C CNN
F 2 "" H 8000 3700 50  0001 C CNN
F 3 "" H 8000 3700 50  0001 C CNN
F 4 "ARF2751-ND" H 8000 3700 50  0001 C CNN "Digi-Key_PN"
F 5 "Amphenol RF" H 8000 3700 50  0001 C CNN "MFR"
F 6 "132340" H 8000 3700 50  0001 C CNN "MPN"
	1    8000 3700
	1    0    0    -1  
$EndComp
Text HLabel 7900 3650 0    50   Input ~ 0
Spare3
Text HLabel 8550 3650 2    50   Output ~ 0
_Spare3
$Comp
L 000_symbol:SMAcable_FF Cable?
U 1 1 61712A3D
P 8000 4050
AR Path="/616DDDEB/61712A3D" Ref="Cable?"  Part="1" 
AR Path="/616DF26F/61712A3D" Ref="Cable1414"  Part="1" 
F 0 "Cable1414" H 8225 4325 50  0000 C CNN
F 1 "SMAcable_FF panel bullet" H 8225 4234 50  0000 C CNN
F 2 "" H 8000 4050 50  0001 C CNN
F 3 "" H 8000 4050 50  0001 C CNN
F 4 "ARF2751-ND" H 8000 4050 50  0001 C CNN "Digi-Key_PN"
F 5 "Amphenol RF" H 8000 4050 50  0001 C CNN "MFR"
F 6 "132340" H 8000 4050 50  0001 C CNN "MPN"
	1    8000 4050
	1    0    0    -1  
$EndComp
Text HLabel 7900 4000 0    50   Input ~ 0
Spare4
Text HLabel 8550 4000 2    50   Output ~ 0
_Spare4
Wire Wire Line
	5600 2500 5700 2500
Wire Wire Line
	5600 2900 5750 2900
Wire Wire Line
	4550 2500 4950 2500
$EndSCHEMATC
