EESchema Schematic File Version 4
EELAYER 30 0
EELAYER END
$Descr USLetter 11000 8500
encoding utf-8
Sheet 10 14
Title ""
Date ""
Rev ""
Comp ""
Comment1 ""
Comment2 ""
Comment3 ""
Comment4 ""
$EndDescr
$Comp
L 000_symbol:Cable Cable?
U 1 1 61761F80
P 5000 3900
AR Path="/616DC966/61761F80" Ref="Cable?"  Part="1" 
AR Path="/616DC966/617D32B4/61761F80" Ref="Cable?"  Part="1" 
AR Path="/616DC966/6184400A/61761F80" Ref="Cable1004"  Part="1" 
AR Path="/616DC966/6183EB65/61761F80" Ref="Cable604"  Part="1" 
AR Path="/616DC966/617EFFAC/61761F80" Ref="Cable?"  Part="1" 
AR Path="/616DC966/61823757/61761F80" Ref="Cable404"  Part="1" 
AR Path="/616DC966/6183EB5D/61761F80" Ref="Cable?"  Part="1" 
AR Path="/616DC966/61843FF2/61761F80" Ref="Cable?"  Part="1" 
AR Path="/616DC966/61843FFA/61761F80" Ref="Cable804"  Part="1" 
AR Path="/616DC966/61844002/61761F80" Ref="Cable?"  Part="1" 
F 0 "Cable1004" H 5225 4125 50  0000 C CNN
F 1 "Cable 2 pin 6v3 make <12in" H 5225 4034 50  0000 C CNN
F 2 "" H 5000 3900 50  0001 C CNN
F 3 "" H 5000 3900 50  0001 C CNN
F 4 "LBL" H 5000 3900 50  0001 C CNN "MFR"
	1    5000 3900
	1    0    0    -1  
$EndComp
Text HLabel 3600 2900 0    50   Output ~ 0
IF_1
Text HLabel 3600 3250 0    50   Output ~ 0
IF_2
Wire Wire Line
	5550 3900 5700 3900
Wire Wire Line
	5700 3900 5700 3550
Text HLabel 3600 3900 0    50   Input ~ 0
DC6V3
Text HLabel 3600 3550 0    50   Input ~ 0
LO
Text HLabel 7350 3100 2    50   Input ~ 0
RF
Wire Wire Line
	3600 3900 4900 3900
$Comp
L 000_symbol:SMAcable_MM Cable?
U 1 1 61761F81
P 4450 3600
AR Path="/616DC966/617D32B4/61761F81" Ref="Cable?"  Part="1" 
AR Path="/616DC966/6184400A/61761F81" Ref="Cable1002"  Part="1" 
AR Path="/616DC966/6183EB65/61761F81" Ref="Cable602"  Part="1" 
AR Path="/616DC966/617EFFAC/61761F81" Ref="Cable?"  Part="1" 
AR Path="/616DC966/61823757/61761F81" Ref="Cable402"  Part="1" 
AR Path="/616DC966/6183EB5D/61761F81" Ref="Cable?"  Part="1" 
AR Path="/616DC966/61843FF2/61761F81" Ref="Cable?"  Part="1" 
AR Path="/616DC966/61843FFA/61761F81" Ref="Cable802"  Part="1" 
AR Path="/616DC966/61844002/61761F81" Ref="Cable?"  Part="1" 
F 0 "Cable1002" H 4675 3875 50  0000 C CNN
F 1 "SMAcable_MM_barral" H 4675 3784 50  0000 C CNN
F 2 "" H 4450 3600 50  0001 C CNN
F 3 "" H 4450 3600 50  0001 C CNN
F 4 "ACX1240-ND" H 4450 3600 50  0001 C CNN "Digi-Key_PN"
F 5 "Amphenol RF" H 4450 3600 50  0001 C CNN "MFR"
F 6 "132168" H 4450 3600 50  0001 C CNN "MPN"
	1    4450 3600
	1    0    0    -1  
$EndComp
Wire Wire Line
	5000 3550 5350 3550
Wire Wire Line
	5350 3300 5350 3550
Wire Wire Line
	4350 3550 3600 3550
Wire Wire Line
	4550 3250 5350 3250
Wire Wire Line
	5350 3250 5350 3200
Wire Wire Line
	5150 2900 5350 2900
Wire Wire Line
	5350 2900 5350 3100
Wire Wire Line
	3600 3250 3900 3250
Wire Wire Line
	3600 2900 4500 2900
$Comp
L 000_symbol:SMAcable_MM Cable?
U 1 1 61761F7D
P 6400 3150
AR Path="/616DC966/617D32B4/61761F7D" Ref="Cable?"  Part="1" 
AR Path="/616DC966/6184400A/61761F7D" Ref="Cable1006"  Part="1" 
AR Path="/616DC966/6183EB65/61761F7D" Ref="Cable606"  Part="1" 
AR Path="/616DC966/617EFFAC/61761F7D" Ref="Cable?"  Part="1" 
AR Path="/616DC966/61823757/61761F7D" Ref="Cable406"  Part="1" 
AR Path="/616DC966/6183EB5D/61761F7D" Ref="Cable?"  Part="1" 
AR Path="/616DC966/61843FF2/61761F7D" Ref="Cable?"  Part="1" 
AR Path="/616DC966/61843FFA/61761F7D" Ref="Cable806"  Part="1" 
AR Path="/616DC966/61844002/61761F7D" Ref="Cable?"  Part="1" 
F 0 "Cable1006" H 6625 3425 50  0000 C CNN
F 1 "SMAcable_MM_4in" H 6625 3334 50  0000 C CNN
F 2 "" H 6400 3150 50  0001 C CNN
F 3 "" H 6400 3150 50  0001 C CNN
F 4 "minicircuits" H 6400 3150 50  0001 C CNN "MFR"
F 5 "086-4SM+" H 6400 3150 50  0001 C CNN "MPN"
	1    6400 3150
	1    0    0    -1  
$EndComp
Wire Wire Line
	6950 3100 7350 3100
$Comp
L 000_symbol:SMAcable_MM Cable?
U 1 1 61761F7E
P 4600 2950
AR Path="/616DC966/617D32B4/61761F7E" Ref="Cable?"  Part="1" 
AR Path="/616DC966/6184400A/61761F7E" Ref="Cable1003"  Part="1" 
AR Path="/616DC966/6183EB65/61761F7E" Ref="Cable603"  Part="1" 
AR Path="/616DC966/617EFFAC/61761F7E" Ref="Cable?"  Part="1" 
AR Path="/616DC966/61823757/61761F7E" Ref="Cable403"  Part="1" 
AR Path="/616DC966/6183EB5D/61761F7E" Ref="Cable?"  Part="1" 
AR Path="/616DC966/61843FF2/61761F7E" Ref="Cable?"  Part="1" 
AR Path="/616DC966/61843FFA/61761F7E" Ref="Cable803"  Part="1" 
AR Path="/616DC966/61844002/61761F7E" Ref="Cable?"  Part="1" 
F 0 "Cable1003" H 4825 3225 50  0000 C CNN
F 1 "SMAcable_MM_RA_S 12 in" H 4825 3134 50  0000 C CNN
F 2 "" H 4600 2950 50  0001 C CNN
F 3 "" H 4600 2950 50  0001 C CNN
F 4 "minicircuits" H 4600 2950 50  0001 C CNN "MFR"
F 5 "086-12SMRSM+" H 4600 2950 50  0001 C CNN "MPN"
	1    4600 2950
	1    0    0    -1  
$EndComp
$Comp
L 000_symbol:SMAcable_MM Cable?
U 1 1 61761F7F
P 4000 3300
AR Path="/616DC966/617D32B4/61761F7F" Ref="Cable?"  Part="1" 
AR Path="/616DC966/6184400A/61761F7F" Ref="Cable1001"  Part="1" 
AR Path="/616DC966/6183EB65/61761F7F" Ref="Cable601"  Part="1" 
AR Path="/616DC966/617EFFAC/61761F7F" Ref="Cable?"  Part="1" 
AR Path="/616DC966/61823757/61761F7F" Ref="Cable401"  Part="1" 
AR Path="/616DC966/6183EB5D/61761F7F" Ref="Cable?"  Part="1" 
AR Path="/616DC966/61843FF2/61761F7F" Ref="Cable?"  Part="1" 
AR Path="/616DC966/61843FFA/61761F7F" Ref="Cable801"  Part="1" 
AR Path="/616DC966/61844002/61761F7F" Ref="Cable?"  Part="1" 
F 0 "Cable1001" H 4225 3575 50  0000 C CNN
F 1 "SMAcable_MM_RA_S 12 in" H 4225 3484 50  0000 C CNN
F 2 "" H 4000 3300 50  0001 C CNN
F 3 "" H 4000 3300 50  0001 C CNN
F 4 "minicircuits" H 4000 3300 50  0001 C CNN "MFR"
F 5 "086-12SMRSM+" H 4000 3300 50  0001 C CNN "MPN"
	1    4000 3300
	1    0    0    -1  
$EndComp
$Comp
L 000_symbol:UPIQ U1001
U 1 1 616D875C
P 5450 3450
AR Path="/616DC966/6184400A/616D875C" Ref="U1001"  Part="1" 
AR Path="/616DC966/6183EB65/616D875C" Ref="U601"  Part="1" 
AR Path="/616DC966/617EFFAC/616D875C" Ref="U?"  Part="1" 
AR Path="/616DC966/61823757/616D875C" Ref="U401"  Part="1" 
AR Path="/616DC966/6183EB5D/616D875C" Ref="U?"  Part="1" 
AR Path="/616DC966/61843FF2/616D875C" Ref="U?"  Part="1" 
AR Path="/616DC966/61843FFA/616D875C" Ref="U801"  Part="1" 
AR Path="/616DC966/61844002/616D875C" Ref="U?"  Part="1" 
F 0 "U1001" H 5825 4025 50  0000 C CNN
F 1 "UPIQ" H 5825 3934 50  0000 C CNN
F 2 "UPIQL" H 5450 3450 50  0001 C CNN
F 3 "" H 5450 3450 50  0001 C CNN
F 4 "LBNL" H 5450 3450 50  0001 C CNN "MFR"
F 5 "upw/amp" H 5450 3450 50  0001 C CNN "MPN"
	1    5450 3450
	1    0    0    -1  
$EndComp
$Comp
L 000_symbol:Cable Cable?
U 1 1 616D875D
P 5000 4250
AR Path="/616DC966/616D875D" Ref="Cable?"  Part="1" 
AR Path="/616DC966/617D32B4/616D875D" Ref="Cable?"  Part="1" 
AR Path="/616DC966/6184400A/616D875D" Ref="Cable1005"  Part="1" 
AR Path="/616DC966/6183EB65/616D875D" Ref="Cable605"  Part="1" 
AR Path="/616DC966/617EFFAC/616D875D" Ref="Cable?"  Part="1" 
AR Path="/616DC966/61823757/616D875D" Ref="Cable405"  Part="1" 
AR Path="/616DC966/6183EB5D/616D875D" Ref="Cable?"  Part="1" 
AR Path="/616DC966/61843FF2/616D875D" Ref="Cable?"  Part="1" 
AR Path="/616DC966/61843FFA/616D875D" Ref="Cable805"  Part="1" 
AR Path="/616DC966/61844002/616D875D" Ref="Cable?"  Part="1" 
F 0 "Cable1005" H 5225 4475 50  0000 C CNN
F 1 "Cable 3pin PM1v8 make/not <12in" H 5225 4384 50  0000 C CNN
F 2 "" H 5000 4250 50  0001 C CNN
F 3 "" H 5000 4250 50  0001 C CNN
F 4 "LBL" H 5000 4250 50  0001 C CNN "MFR"
F 5 "1" H 5000 4250 50  0001 C CNN "Notes"
	1    5000 4250
	1    0    0    -1  
$EndComp
Text HLabel 3600 4250 0    50   Input ~ 0
DCPM1v8
Wire Wire Line
	5950 3550 5950 4250
Wire Wire Line
	5950 4250 5550 4250
Wire Wire Line
	4900 4250 3600 4250
$EndSCHEMATC
