EESchema Schematic File Version 4
EELAYER 30 0
EELAYER END
$Descr A4 11693 8268
encoding utf-8
Sheet 2 4
Title ""
Date ""
Rev ""
Comp ""
Comment1 ""
Comment2 ""
Comment3 ""
Comment4 ""
$EndDescr
$Comp
L 000_symbol:Wenzel_Oscillator_501-16843 U11
U 1 1 5D1FC03E
P 900 3700
F 0 "U11" H 1425 4265 50  0000 C CNN
F 1 "Wenzel_Oscillator_501-16843" H 1425 4174 50  0000 C CNN
F 2 "" H 900 3700 50  0001 C CNN
F 3 "" H 900 3700 50  0001 C CNN
	1    900  3700
	1    0    0    -1  
$EndComp
$Comp
L 000_symbol:minicircuits_ZFSC-4-1-S+_Splitter_4way U15
U 1 1 5D1FD645
P 2550 3650
F 0 "U15" H 2575 4417 50  0000 C CNN
F 1 "minicircuits_ZFSC-4-1S+_Splitter_4way" H 2575 4326 50  0000 C CNN
F 2 "" H 2400 3200 50  0001 C CNN
F 3 "" H 2500 3300 50  0001 C CNN
	1    2550 3650
	1    0    0    -1  
$EndComp
$Comp
L 000_symbol:LMX2595EVM B1
U 1 1 5D236C40
P 4050 1700
F 0 "B1" H 3481 2171 50  0000 R CNN
F 1 "LMX2595EVM" H 3481 2080 50  0000 R CNN
F 2 "" H 4050 1700 50  0001 C CNN
F 3 "" H 4050 1700 50  0001 C CNN
	1    4050 1700
	1    0    0    -1  
$EndComp
$Comp
L 000_symbol:LMX2595EVM B3
U 1 1 5D239E41
P 5700 2500
F 0 "B3" H 5131 2971 50  0000 R CNN
F 1 "LMX2595EVM" H 5131 2880 50  0000 R CNN
F 2 "" H 5700 2500 50  0001 C CNN
F 3 "" H 5700 2500 50  0001 C CNN
	1    5700 2500
	1    0    0    -1  
$EndComp
$Comp
L 000_symbol:LMX2595EVM B4
U 1 1 5D23A7DA
P 5700 4400
F 0 "B4" H 5131 4871 50  0000 R CNN
F 1 "LMX2595EVM" H 5131 4780 50  0000 R CNN
F 2 "" H 5700 4400 50  0001 C CNN
F 3 "" H 5700 4400 50  0001 C CNN
	1    5700 4400
	1    0    0    -1  
$EndComp
Wire Wire Line
	3050 3350 3050 1450
Wire Wire Line
	3050 1450 3850 1450
Wire Wire Line
	3000 3350 3050 3350
Wire Wire Line
	3000 3550 3300 3550
Wire Wire Line
	3300 3550 3300 2250
Wire Wire Line
	3300 2250 5500 2250
Wire Wire Line
	3000 3750 3300 3750
Wire Wire Line
	3300 3750 3300 4150
Wire Wire Line
	3300 4150 5500 4150
Wire Wire Line
	3000 3950 3100 3950
Wire Wire Line
	3100 3950 3100 5400
Wire Wire Line
	3100 5400 3900 5400
$Comp
L 000_symbol:minicircuits_ZN8PD-113-S+_Splitter_8way U24
U 1 1 5D25B27F
P 7900 3750
F 0 "U24" H 8150 5717 50  0000 C CNN
F 1 "minicircuits_ZN8PD-113-S+_Splitter_8way" H 8250 5550 50  0000 C CNN
F 2 "" H 8000 3700 50  0001 C CNN
F 3 "" H 8100 3800 50  0001 C CNN
	1    7900 3750
	1    0    0    -1  
$EndComp
$Comp
L 000_symbol:minicircuits_ZB8PD-362-S+_Splitter_8way U27
U 1 1 5D25BF21
P 8900 5000
F 0 "U27" H 9150 6967 50  0000 C CNN
F 1 "minicircuits_ZB8PD-362-S+_Splitter_8way" H 9150 6876 50  0000 C CNN
F 2 "" H 9000 4950 50  0001 C CNN
F 3 "" H 9100 5050 50  0001 C CNN
	1    8900 5000
	1    0    0    -1  
$EndComp
Wire Wire Line
	2050 3650 2150 3650
Wire Wire Line
	5350 1000 6550 1000
Wire Wire Line
	8700 1000 8700 1750
$Comp
L 000_symbol:ZX60-83LN-S+ U20
U 1 1 5D2648C8
P 6850 1050
F 0 "U20" H 7194 1153 60  0000 L CNN
F 1 "ZX60-83LN-S+" H 7194 1047 60  0000 L CNN
F 2 "" H 7050 1250 60  0001 L CNN
F 3 "" H 7050 1350 60  0001 L CNN
F 4 "RF Amplifiers" H 7050 1750 60  0001 L CNN "Family"
	1    6850 1050
	1    0    0    -1  
$EndComp
Wire Wire Line
	7150 1000 8700 1000
Wire Wire Line
	7000 1800 7050 1800
$Comp
L 000_symbol:ZX60-83LN-S+ U23
U 1 1 5D265101
P 7350 1850
F 0 "U23" H 7200 2300 60  0000 L CNN
F 1 "ZX60-83LN-S+" H 7200 2200 60  0000 L CNN
F 2 "" H 7550 2050 60  0001 L CNN
F 3 "" H 7550 2150 60  0001 L CNN
F 4 "RF Amplifiers" H 7550 2550 60  0001 L CNN "Family"
	1    7350 1850
	1    0    0    -1  
$EndComp
Wire Wire Line
	7650 1800 7650 2850
Wire Wire Line
	7650 2850 7700 2850
$Comp
L 000_symbol:minicircuits_ZCSC-8-13-S+_Splitter_8way U25
U 1 1 5D267F16
P 7900 6000
F 0 "U25" H 8150 7967 50  0000 C CNN
F 1 "ZCSC-8-13-S+_Splitter_8way" H 8150 7876 50  0000 C CNN
F 2 "" H 8000 5950 50  0001 C CNN
F 3 "" H 8100 6050 50  0001 C CNN
	1    7900 6000
	1    0    0    -1  
$EndComp
Wire Wire Line
	5500 3850 5400 3850
Wire Wire Line
	5400 3850 5400 4800
Wire Wire Line
	7700 4800 7700 5100
$Comp
L 000_symbol:ZX60-33LN+ U21
U 1 1 5D26B5B9
P 6950 4850
F 0 "U21" H 7294 4953 60  0000 L CNN
F 1 "ZX60-33LN+" H 7294 4847 60  0000 L CNN
F 2 "" H 7150 5050 60  0001 L CNN
F 3 "" H 7150 5150 60  0001 L CNN
F 4 "RF Amplifiers" H 7150 5550 60  0001 L CNN "Family"
	1    6950 4850
	1    0    0    -1  
$EndComp
Wire Wire Line
	7250 4800 7700 4800
$Comp
L 000_symbol:ZX60-33LN+ U22
U 1 1 5D26EF05
P 7300 3750
F 0 "U22" H 7644 3853 60  0000 L CNN
F 1 "ZX60-33LN+" H 7644 3747 60  0000 L CNN
F 2 "" H 7500 3950 60  0001 L CNN
F 3 "" H 7500 4050 60  0001 L CNN
F 4 "RF Amplifiers" H 7500 4450 60  0001 L CNN "Family"
	1    7300 3750
	1    0    0    -1  
$EndComp
Wire Wire Line
	7600 3700 7600 4100
Wire Wire Line
	7600 4100 8700 4100
$Comp
L 000_symbol:ZX60-83LN-S+ U19
U 1 1 5D270D32
P 6050 5650
F 0 "U19" H 6394 5753 60  0000 L CNN
F 1 "ZX60-83LN-S+" H 6394 5647 60  0000 L CNN
F 2 "" H 6250 5850 60  0001 L CNN
F 3 "" H 6250 5950 60  0001 L CNN
F 4 "RF Amplifiers" H 6250 6350 60  0001 L CNN "Family"
	1    6050 5650
	1    0    0    -1  
$EndComp
Wire Wire Line
	5750 4950 5750 5600
$Comp
L 000_symbol:Arduino_spi_4 U13
U 1 1 5D27620D
P 1100 1950
F 0 "U13" H 1600 2825 50  0000 C CNN
F 1 "Arduino_spi_4" H 1600 2734 50  0000 C CNN
F 2 "0001:t1" H 1100 1950 50  0001 C CNN
F 3 "" H 1100 1950 50  0001 C CNN
	1    1100 1950
	1    0    0    -1  
$EndComp
Wire Wire Line
	2250 1300 1450 1300
Wire Wire Line
	1450 1300 1450 3550
Wire Wire Line
	1450 3550 800  3550
Wire Wire Line
	2250 1450 2750 1450
Wire Wire Line
	2750 1450 2750 700 
Wire Wire Line
	2250 1600 3600 1600
Wire Wire Line
	3600 1600 3600 1500
Wire Wire Line
	2250 1750 3600 1750
Wire Wire Line
	3600 1750 3600 3400
Wire Wire Line
	2250 1900 3500 1900
Wire Wire Line
	3500 1900 3500 4650
$Comp
L 000_symbol:HMC346ALP3 U18
U 1 1 5D281F20
P 5850 6150
F 0 "U18" V 6079 6738 50  0000 L CNN
F 1 "HMC346ALP3" V 6170 6738 50  0000 L CNN
F 2 "" H 5850 6150 50  0001 C CNN
F 3 "" H 5850 6150 50  0001 C CNN
	1    5850 6150
	0    1    1    0   
$EndComp
Wire Wire Line
	6350 5600 6350 6000
Wire Wire Line
	2750 700  4250 700 
Wire Wire Line
	3600 1500 5900 1500
Wire Wire Line
	3600 3400 5900 3400
Wire Wire Line
	3500 4650 4300 4650
Entry Wire Line
	-3650 16150 -3550 16250
Entry Wire Line
	20950 5600 21050 5700
Wire Wire Line
	5400 4950 5750 4950
Wire Wire Line
	5400 4800 6650 4800
$Comp
L 000_symbol:DCDCfanout U14
U 1 1 5D284702
P 2050 6500
F 0 "U14" H 2725 7415 50  0000 C CNN
F 1 "DCDCfanout" H 2725 7324 50  0000 C CNN
F 2 "" H 2050 6500 50  0001 C CNN
F 3 "" H 2050 6500 50  0001 C CNN
	1    2050 6500
	1    0    0    -1  
$EndComp
$Comp
L 000_symbol:ACDCpower U12
U 1 1 5D266EB4
P 900 6250
F 0 "U12" H 1375 6915 50  0000 C CNN
F 1 "ACDCpower" H 1375 6824 50  0000 C CNN
F 2 "" H 900 6250 50  0001 C CNN
F 3 "" H 900 6250 50  0001 C CNN
	1    900  6250
	1    0    0    -1  
$EndComp
Text HLabel 800  6200 0    50   Input ~ 0
V110
$Comp
L 000_symbol:LMX2595EVM B2
U 1 1 5D23B55A
P 4100 5650
F 0 "B2" H 3531 6121 50  0000 R CNN
F 1 "LMX2595EVM" H 3531 6030 50  0000 R CNN
F 2 "" H 4100 5650 50  0001 C CNN
F 3 "" H 4100 5650 50  0001 C CNN
	1    4100 5650
	1    0    0    -1  
$EndComp
$Comp
L 000_symbol:VVASCTL U16
U 1 1 5D2A8F94
P 4800 6150
F 0 "U16" H 5200 5985 50  0000 C CNN
F 1 "VVASCTL" H 5200 6076 50  0000 C CNN
F 2 "" H 4800 6100 50  0001 C CNN
F 3 "" H 4800 6100 50  0001 C CNN
	1    4800 6150
	1    0    0    1   
$EndComp
Text HLabel 9600 2550 2    50   Output ~ 0
QLO8
Text HLabel 9600 2350 2    50   Output ~ 0
QLO7
Text HLabel 9600 2150 2    50   Output ~ 0
QLO6
Text HLabel 9600 1950 2    50   Output ~ 0
QLO5
Text HLabel 9600 1750 2    50   Output ~ 0
QLO4
Text HLabel 9600 1550 2    50   Output ~ 0
QLO3
Text HLabel 9600 1350 2    50   Output ~ 0
QLO2
Text HLabel 9600 1150 2    50   Output ~ 0
QLO1
$Comp
L 000_symbol:minicircuits_ZN8PD-113-S+_Splitter_8way U26
U 1 1 5D25927E
P 8900 2650
F 0 "U26" H 9150 4617 50  0000 C CNN
F 1 "minicircuits_ZN8PD-113-S+_Splitter_8way" H 9150 4526 50  0000 C CNN
F 2 "" H 9000 2600 50  0001 C CNN
F 3 "" H 9100 2700 50  0001 C CNN
	1    8900 2650
	1    0    0    -1  
$EndComp
Text HLabel 8600 3650 2    50   Output ~ 0
RLO8
Text HLabel 8600 3450 2    50   Output ~ 0
RLO7
Text HLabel 8600 3250 2    50   Output ~ 0
RLO6
Text HLabel 8600 3050 2    50   Output ~ 0
RLO5
Text HLabel 8600 2850 2    50   Output ~ 0
RLO4
Text HLabel 8600 2650 2    50   Output ~ 0
RLO3
Text HLabel 8600 2450 2    50   Output ~ 0
RLO2
Text HLabel 8600 2250 2    50   Output ~ 0
RLO1
Text HLabel 9600 4900 2    50   Output ~ 0
CLK8
Text HLabel 9600 4700 2    50   Output ~ 0
CLK7
Text HLabel 9600 4500 2    50   Output ~ 0
CLK6
Text HLabel 9600 4300 2    50   Output ~ 0
CLK5
Text HLabel 9600 4100 2    50   Output ~ 0
CLK4
Text HLabel 9600 3900 2    50   Output ~ 0
CLK3
Text HLabel 9600 3700 2    50   Output ~ 0
CLK2
Text HLabel 9600 3500 2    50   Output ~ 0
CLK1
Text HLabel 8600 5900 2    50   Output ~ 0
SYNC8
Text HLabel 8600 5700 2    50   Output ~ 0
SYNC7
Text HLabel 8600 5500 2    50   Output ~ 0
SYNC6
Text HLabel 8600 5300 2    50   Output ~ 0
SYNC5
Text HLabel 8600 5100 2    50   Output ~ 0
SYNC4
Text HLabel 8600 4900 2    50   Output ~ 0
SYNC3
Text HLabel 8600 4700 2    50   Output ~ 0
SYNC2
Text HLabel 8600 4500 2    50   Output ~ 0
SYNC1
$Comp
L 000_symbol:HMC547ALP3E U17
U 1 1 5D3028FB
P 5800 7500
F 0 "U17" V 6121 8138 50  0000 L CNN
F 1 "HMC547ALP3E" V 6030 8138 50  0000 L CNN
F 2 "" H 5800 7500 50  0001 C CNN
F 3 "" H 5800 7500 50  0001 C CNN
	1    5800 7500
	0    1    -1   0   
$EndComp
Wire Wire Line
	3500 6250 4000 6250
Wire Wire Line
	4700 6250 4700 6400
Wire Wire Line
	2750 6600 3150 6600
Wire Wire Line
	4700 6600 4700 6550
Connection ~ 4250 700 
Wire Wire Line
	4250 700  4400 700 
Connection ~ 4300 4650
Wire Wire Line
	4300 4650 4450 4650
Connection ~ 4400 700 
Wire Wire Line
	4400 700  4550 700 
Connection ~ 4450 4650
Wire Wire Line
	4450 4650 4600 4650
Connection ~ 5900 1500
Wire Wire Line
	5900 1500 6050 1500
Connection ~ 5900 3400
Wire Wire Line
	5900 3400 6050 3400
Connection ~ 6050 1500
Wire Wire Line
	6050 1500 6200 1500
Connection ~ 6050 3400
Wire Wire Line
	6050 3400 6200 3400
$Sheet
S 3650 6900 950  500 
U 5D339515
F0 "HMC547_DRV" 50
F1 "../../boards/HMC547_DRV/HMC547_DRV.sch" 50
F2 "CTRL_CMOS" I L 3650 7100 50 
F3 "gnd" I L 3650 7200 50 
F4 "DC-5V" I L 3650 7300 50 
F5 "A" O R 4600 7100 50 
F6 "B" O R 4600 7250 50 
$EndSheet
Wire Wire Line
	4600 7100 5550 7100
Wire Wire Line
	5550 7100 5550 7700
Wire Wire Line
	5550 7700 6000 7700
Wire Wire Line
	6000 7700 6000 7600
Wire Wire Line
	4600 7250 5350 7250
Wire Wire Line
	5350 7250 5350 7600
Wire Wire Line
	5350 7600 5900 7600
Text HLabel 2900 7050 0    50   Input ~ 0
TWPA_CTRL
Wire Wire Line
	2900 7050 3450 7050
Wire Wire Line
	3450 7050 3450 7100
Wire Wire Line
	3450 7100 3650 7100
Wire Wire Line
	4000 6250 4000 7300
Wire Wire Line
	4000 7300 3650 7300
Wire Wire Line
	3650 7300 3650 7200
Connection ~ 4000 6250
Wire Wire Line
	4000 6250 4700 6250
Wire Wire Line
	3150 6600 3150 7200
Wire Wire Line
	3150 7200 3650 7200
Connection ~ 3150 6600
Wire Wire Line
	3150 6600 4600 6600
Wire Wire Line
	4600 6600 4600 6850
Wire Wire Line
	4600 6850 5700 6850
Wire Wire Line
	5700 6850 5700 7300
Connection ~ 4600 6600
Wire Wire Line
	4600 6600 4700 6600
Text HLabel 6450 7650 2    50   Output ~ 0
TWPA_PUMP
Wire Wire Line
	6250 7600 6250 7650
Wire Wire Line
	6250 7650 6450 7650
$Comp
L 000_symbol:50_OHM J1
U 1 1 5D36294D
P 6000 6850
F 0 "J1" H 6083 7075 50  0000 C CNN
F 1 "50_OHM" H 6083 6984 50  0000 C CNN
F 2 "digikey-footprints:UMCoax_Pin_1909763-1" H 6200 7050 60  0001 L CNN
F 3 "https://www.te.com/commerce/DocumentDelivery/DDEController?Action=srchrtrv&DocNm=1909763&DocType=Customer+Drawing&DocLang=English" H 6200 7150 60  0001 L CNN
F 4 "A118077CT-ND" H 6200 7250 60  0001 L CNN "Digi-Key_PN"
F 5 "1909763-1" H 6200 7350 60  0001 L CNN "MPN"
F 6 "Connectors, Interconnects" H 6200 7450 60  0001 L CNN "Category"
F 7 "Coaxial Connectors (RF)" H 6200 7550 60  0001 L CNN "Family"
F 8 "https://www.te.com/commerce/DocumentDelivery/DDEController?Action=srchrtrv&DocNm=1909763&DocType=Customer+Drawing&DocLang=English" H 6200 7650 60  0001 L CNN "DK_Datasheet_Link"
F 9 "/product-detail/en/te-connectivity-amp-connectors/1909763-1/A118077CT-ND/4729711" H 6200 7750 60  0001 L CNN "DK_Detail_Page"
F 10 "CONN UMCC JACK STR 50OHM SMD" H 6200 7850 60  0001 L CNN "Description"
F 11 "TE Connectivity AMP Connectors" H 6200 7950 60  0001 L CNN "Manufacturer"
F 12 "Active" H 6200 8050 60  0001 L CNN "Status"
	1    6000 6850
	1    0    0    -1  
$EndComp
$EndSCHEMATC
